<?xml version="1.0" encoding="UTF-8"?>
<!DOCTYPE svg PUBLIC "-//W3C//DTD SVG 1.1//EN" "http://www.w3.org/Graphics/SVG/1.1/DTD/svg11.dtd">
<svg version="1.1" xmlns="http://www.w3.org/2000/svg" xmlns:xlink="http://www.w3.org/1999/xlink" x="0px" y="0px" width="2048" height="600" viewBox="0, 0, 2048, 600">
  <g id="Background">
    <rect x="0" y="0" width="2048" height="600" fill="#FFFFFF" fill-opacity="0"/>
  </g>
  <g id="Background">
    <path d="M0,600 L0,0 L2048,0 L2048,600 z M435.15,318.917 C435.345,318.722 435.345,318.405 435.15,318.21 C434.954,318.015 434.638,318.015 434.443,318.21 C434.247,318.405 434.247,318.722 434.443,318.917 C434.638,319.112 434.954,319.112 435.15,318.917 z z" fill="url(#Gradient_1)"/>
    <path d="M0,575 L2048,575 L2048,600 L0,600 z" fill="url(#Gradient_2)"/>
    <path d="M0,471.916 L26.39,459.6 L69.787,494.201 L101.455,456.668 L150.717,484.818 L224.609,466.638 L272.111,484.818 L351.868,503.584 L409.34,443.18 L469.158,488.336 L524.87,480.126 L555.365,490.682 L612.251,453.736 L631.017,474.262 L671.482,474.262 L700.218,443.18 L731.886,481.299 L766.486,478.367 L797.283,435.189 L856.331,460.861 L871.17,425 L896.106,435.189 L924.343,466.425 L963.288,435.189 L1007.194,454.678 L1046.764,449.113 L1089.521,435.189 L1111.066,461.479 L1176.605,473.227 L1221,435.189 L1296.553,489.302 L1318.811,472.608 L1356.229,471.554 L1370.606,487.985 L1400.729,433.215 L1471.93,491.408 L1513.691,467.446 L1541.761,470.185 L1553.399,433.9 L1588.315,438.008 L1630,435.189 L1674.577,465.393 L1704,435.189 L1813.554,503.047 L1845.047,476.346 L1903.924,513.316 L1946.274,476.65 L2007.315,510.301 L2019.836,485.259 L2048,511.866 L2048,575 L0,575 z" fill="url(#Gradient_3)"/>
    <path d="MNaN,NaN LNaN,NaN LNaN,NaN LNaN,NaN LNaN,NaN" fill="#000000"/>
    <path d="MNaN,NaN LNaN,NaN LNaN,NaN LNaN,NaN LNaN,NaN" fill="#000000"/>
    <path d="MNaN,NaN LNaN,NaN LNaN,NaN LNaN,NaN LNaN,NaN" fill="#000000"/>
    <path d="M1782.734,209.288 L1780.908,207.068 LNaN,NaN LNaN,NaN L1771.016,194.686 L1768.841,192.874 LNaN,NaN LNaN,NaN L1767.667,192.069 LNaN,NaN L1764.543,191.703 L1762.286,192.54 LNaN,NaN L1759.057,194.221 LNaN,NaN L1755.94,195.811 L1750.64,198.732 LNaN,NaN L1742.709,204.234 L1739.47,207.211 LNaN,NaN L1732.928,214.61 L1730.061,218.136 L1727.922,220.782 L1726.77,222.203 LNaN,NaN LNaN,NaN LNaN,NaN L1690.715,267.201 LNaN,NaN LNaN,NaN LNaN,NaN L1683.931,276.698 L1679.905,283.137 LNaN,NaN L1671.643,298.114 L1667.61,306.102 L1663.777,314.055 LNaN,NaN L1657.119,328.755 LNaN,NaN LNaN,NaN LNaN,NaN LNaN,NaN LNaN,NaN LNaN,NaN LNaN,NaN L1646.577,355.529 L1643.681,363.632 L1640.992,371.572 L1638.692,378.928 L1637.331,383.807 L1636.639,386.657 L1636.367,387.942 LNaN,NaN LNaN,NaN L1635.82,391.131 L1635.147,397.569 L1634.642,407.297 L1634.214,413.772 LNaN,NaN L1634.003,415.958 LNaN,NaN L1632.536,430.051 L1631.732,439.681 LNaN,NaN LNaN,NaN L1631.724,456.829 LNaN,NaN LNaN,NaN LNaN,NaN L1632.727,461.887 L1634.431,467.227 L1636.61,472.01 L1639.234,476.348 LNaN,NaN LNaN,NaN LNaN,NaN LNaN,NaN LNaN,NaN L1655.739,493.413 L1658.498,495.738 L1664.281,500.224 L1670.38,504.456 L1676.745,508.396 LNaN,NaN LNaN,NaN L1696.959,518.044 L1703.91,520.4 L1707.398,521.395 LNaN,NaN L1707.398,521.395 LNaN,NaN LNaN,NaN L1722.465,523.547 L1722.465,523.547 L1724.006,523.728 LNaN,NaN LNaN,NaN L1739.491,525.336 LNaN,NaN LNaN,NaN LNaN,NaN L1760.695,526.071 LNaN,NaN LNaN,NaN LNaN,NaN LNaN,NaN L1765.976,525.066 LNaN,NaN LNaN,NaN LNaN,NaN LNaN,NaN LNaN,NaN L1791.605,510.007 L1793.496,508.48 LNaN,NaN L1791.605,510.007 LNaN,NaN LNaN,NaN LNaN,NaN LNaN,NaN LNaN,NaN L1765.976,525.066 LNaN,NaN LNaN,NaN LNaN,NaN L1760.695,526.071 LNaN,NaN LNaN,NaN LNaN,NaN L1739.491,525.336 LNaN,NaN LNaN,NaN L1724.006,523.728 L1722.465,523.547 LNaN,NaN L1722.465,523.547 LNaN,NaN LNaN,NaN L1707.398,521.395 L1707.398,521.395 L1703.91,520.4 L1696.959,518.044 LNaN,NaN LNaN,NaN L1676.745,508.396 L1670.38,504.456 L1664.281,500.224 L1658.498,495.738 L1655.739,493.413 LNaN,NaN LNaN,NaN LNaN,NaN LNaN,NaN L1639.234,476.348 L1636.61,472.01 L1634.431,467.227 L1632.727,461.887 LNaN,NaN LNaN,NaN L1631.724,456.829 LNaN,NaN LNaN,NaN L1631.732,439.681 L1632.536,430.051 LNaN,NaN L1634.003,415.958 LNaN,NaN LNaN,NaN L1634.214,413.772 L1634.642,407.297 L1635.147,397.569 L1635.82,391.131 LNaN,NaN L1636.367,387.942 L1636.639,386.657 L1637.331,383.807 L1638.692,378.928 L1640.992,371.572 L1643.681,363.632 L1646.577,355.529 LNaN,NaN LNaN,NaN LNaN,NaN LNaN,NaN LNaN,NaN LNaN,NaN L1657.119,328.755 LNaN,NaN L1663.777,314.055 L1667.61,306.102 L1671.643,298.114 LNaN,NaN L1679.905,283.137 L1683.931,276.698 LNaN,NaN LNaN,NaN L1690.715,267.201 LNaN,NaN LNaN,NaN LNaN,NaN LNaN,NaN L1726.77,222.203 L1727.922,220.782 L1730.061,218.136 L1732.928,214.61 LNaN,NaN L1739.47,207.211 L1742.709,204.234 LNaN,NaN L1750.64,198.732 L1755.94,195.811 LNaN,NaN LNaN,NaN L1759.057,194.221 LNaN,NaN L1762.286,192.54 L1764.543,191.703 LNaN,NaN L1767.667,192.069 LNaN,NaN L1768.841,192.874 L1771.016,194.686 LNaN,NaN LNaN,NaN L1780.908,207.068 LNaN,NaN L1782.734,209.288" fill="#000000"/>
    <path d="M1838.696,200.678 L1834.874,202.456 LNaN,NaN LNaN,NaN L1815.453,211.286 L1810.198,213.606 L1805.486,215.658 LNaN,NaN L1797.534,219.058 LNaN,NaN LNaN,NaN LNaN,NaN L1783.48,225.073 L1780.271,226.657 L1777.576,228.243 L1775.079,230.038 L1772.464,232.246 LNaN,NaN LNaN,NaN L1764.509,239.787 LNaN,NaN LNaN,NaN LNaN,NaN L1752.68,251.009 LNaN,NaN LNaN,NaN L1741.835,260.947 L1741.835,260.947 LNaN,NaN LNaN,NaN L1707.396,291.081 LNaN,NaN LNaN,NaN LNaN,NaN L1680.087,317.059 L1670.804,325.521 L1670.804,325.521 L1662.343,332.692 LNaN,NaN L1636.365,353.503 LNaN,NaN L1636.365,353.503 L1629.958,358.951 LNaN,NaN L1613.908,372.524 LNaN,NaN L1610.535,375.027 L1609.055,376.079 L1606.319,377.985 L1602.69,380.39 L1598.513,382.85 LNaN,NaN L1591.113,385.802 LNaN,NaN LNaN,NaN LNaN,NaN LNaN,NaN LNaN,NaN LNaN,NaN L1572.269,388.086 LNaN,NaN LNaN,NaN LNaN,NaN L1563.748,386.949 LNaN,NaN L1561.856,382.836 L1561.265,379.349 L1561.029,377.18 LNaN,NaN L1560.602,372.876 L1559.816,364.197 L1559.518,355.518 LNaN,NaN L1561.029,342.74 L1561.029,342.74 LNaN,NaN LNaN,NaN LNaN,NaN L1568.367,321.57 L1572.852,311.249 L1579.643,296.919 L1586.965,282.474 LNaN,NaN LNaN,NaN L1603.142,252.568 L1606.31,246.912 LNaN,NaN L1610.535,239.422 LNaN,NaN L1610.535,239.422 L1617.226,227.396 L1627.396,209.425 LNaN,NaN LNaN,NaN L1638.517,192.068 L1640.267,189.62 LNaN,NaN LNaN,NaN LNaN,NaN L1651.593,175.73 L1653.891,173.423 LNaN,NaN LNaN,NaN LNaN,NaN LNaN,NaN L1671.732,157.585 LNaN,NaN L1677.721,151.021 LNaN,NaN LNaN,NaN L1679.414,149.019 LNaN,NaN L1681.08,145.81 LNaN,NaN LNaN,NaN LNaN,NaN LNaN,NaN L1684.232,140.072 LNaN,NaN L1687.33,139.655 LNaN,NaN L1688.137,140.215 L1688.024,140.409 LNaN,NaN L1683.958,145.193 L1675.474,154.453 L1662.311,167.956 L1653.584,177.001 LNaN,NaN L1653.584,177.001 L1649.181,181.649 L1639.802,191.441 L1629.918,201.793 LNaN,NaN L1609.877,223.67 LNaN,NaN LNaN,NaN LNaN,NaN L1580.401,263.099 LNaN,NaN L1580.401,263.099 LNaN,NaN L1576.877,270.214 L1573.849,277.58 L1571.791,282.471 LNaN,NaN L1573.849,277.58 L1576.877,270.214 LNaN,NaN L1580.401,263.099 L1580.401,263.099 LNaN,NaN LNaN,NaN LNaN,NaN L1609.877,223.67 LNaN,NaN L1629.918,201.793 L1639.802,191.441 L1649.181,181.649 L1653.584,177.001 L1653.584,177.001 L1662.311,167.956 L1675.474,154.453 L1683.958,145.193 LNaN,NaN LNaN,NaN L1688.024,140.409 L1688.137,140.215 LNaN,NaN L1687.33,139.655 LNaN,NaN L1684.232,140.072 LNaN,NaN LNaN,NaN LNaN,NaN LNaN,NaN LNaN,NaN L1681.08,145.81 LNaN,NaN L1679.414,149.019 LNaN,NaN L1677.721,151.021 LNaN,NaN L1671.732,157.585 LNaN,NaN LNaN,NaN LNaN,NaN LNaN,NaN L1653.891,173.423 L1651.593,175.73 LNaN,NaN LNaN,NaN LNaN,NaN L1640.267,189.62 L1638.517,192.068 LNaN,NaN LNaN,NaN LNaN,NaN L1627.396,209.425 L1617.226,227.396 L1610.535,239.422 L1610.535,239.422 LNaN,NaN L1606.31,246.912 L1603.142,252.568 LNaN,NaN LNaN,NaN L1586.965,282.474 L1579.643,296.919 L1572.852,311.249 L1568.367,321.57 LNaN,NaN LNaN,NaN LNaN,NaN L1561.029,342.74 LNaN,NaN L1561.029,342.74 LNaN,NaN L1559.518,355.518 L1559.816,364.197 L1560.602,372.876 LNaN,NaN LNaN,NaN L1561.029,377.18 L1561.265,379.349 L1561.856,382.836 LNaN,NaN L1563.748,386.949 LNaN,NaN LNaN,NaN LNaN,NaN L1572.269,388.086 LNaN,NaN LNaN,NaN LNaN,NaN LNaN,NaN LNaN,NaN L1591.113,385.802 LNaN,NaN L1598.513,382.85 L1602.69,380.39 L1606.319,377.985 L1609.055,376.079 L1610.535,375.027 LNaN,NaN LNaN,NaN L1613.908,372.524 LNaN,NaN L1629.958,358.951 L1636.365,353.503 L1636.365,353.503 LNaN,NaN L1662.343,332.692 L1670.804,325.521 LNaN,NaN L1670.804,325.521 L1680.087,317.059 LNaN,NaN LNaN,NaN L1707.396,291.081 LNaN,NaN LNaN,NaN L1741.835,260.947 LNaN,NaN L1741.835,260.947 LNaN,NaN LNaN,NaN L1752.68,251.009 LNaN,NaN LNaN,NaN LNaN,NaN L1764.509,239.787 LNaN,NaN LNaN,NaN L1772.464,232.246 L1775.079,230.038 L1777.576,228.243 L1780.271,226.657 L1783.48,225.073 LNaN,NaN LNaN,NaN LNaN,NaN L1797.534,219.058 LNaN,NaN L1805.486,215.658 L1810.198,213.606 L1815.453,211.286 LNaN,NaN LNaN,NaN L1834.874,202.456 LNaN,NaN L1838.696,200.678" fill="#000000"/>
    <g>
      <path d="M1440.33,348.33 L1440.33,348.33" fill="#FFDEE6"/>
      <path d="MNaN,NaN LNaN,NaN LNaN,NaN LNaN,NaN LNaN,NaN" fill="#FFD4EF"/>
    </g>
    <g>
      <path d="M1426.92,267.485 L1426.92,267.485" fill="#FFDEE6"/>
      <path d="MNaN,NaN LNaN,NaN LNaN,NaN LNaN,NaN LNaN,NaN" fill="#FFD4EF"/>
    </g>
    <g>
      <path d="M1252.21,241.851 L1252.21,241.851" fill="#FFDEE6"/>
      <path d="MNaN,NaN LNaN,NaN LNaN,NaN LNaN,NaN LNaN,NaN" fill="#FFD4EF"/>
    </g>
    <g>
      <path d="M1480.95,279.71 L1480.95,279.71" fill="#FFDEE6"/>
      <path d="M1480.95,279.71 L1480.95,279.71" fill-opacity="0" stroke="#FFB8D7" stroke-width="4.5" stroke-linecap="round"/>
    </g>
    <g>
      <path d="M1620.15,162.645 L1620.15,162.645" fill="#FFDEE6"/>
      <path d="M1620.15,162.645 L1620.15,162.645" fill-opacity="0" stroke="#FFB8D7" stroke-width="4.5" stroke-linecap="round"/>
    </g>
    <g>
      <path d="M1843.55,303.171 L1843.55,303.171" fill="#FFDEE6"/>
      <path d="M1843.55,303.171 L1843.55,303.171" fill-opacity="0" stroke="#FFB8D7" stroke-width="4.5" stroke-linecap="round"/>
    </g>
    <g>
      <path d="M1829.14,189.67 L1829.14,189.67" fill="#FFDEE6"/>
      <path d="M1829.14,189.67 L1829.14,189.67" fill-opacity="0" stroke="#FFB8D7" stroke-width="4.5" stroke-linecap="round"/>
    </g>
    <g>
      <path d="M1067.06,132.018 L1067.06,132.018" fill="#FFDEE6"/>
      <path d="M1067.06,132.018 L1067.06,132.018" fill-opacity="0" stroke="#FFB8D7" stroke-width="4.5" stroke-linecap="round"/>
    </g>
    <g>
      <path d="M769.79,229.305 L769.79,229.305" fill="#FFDEE6"/>
      <path d="M769.79,229.305 L769.79,229.305" fill-opacity="0" stroke="#FFB8D7" stroke-width="4.5" stroke-linecap="round"/>
    </g>
    <g>
      <path d="M1185.96,272.544 L1185.96,272.544" fill="#FFDEE6"/>
      <path d="M1185.96,272.544 L1185.96,272.544" fill-opacity="0" stroke="#FFB8D7" stroke-width="4.5" stroke-linecap="round"/>
    </g>
    <g>
      <path d="M508.423,159.226 L508.423,159.226" fill="#FFDEE6"/>
      <path d="M508.423,159.226 L508.423,159.226" fill-opacity="0" stroke="#FFB8D7" stroke-width="4.5" stroke-linecap="round"/>
    </g>
    <g>
      <path d="M476.678,272.979 L476.678,272.979" fill="#FFDEE6"/>
      <path d="M476.678,272.979 L476.678,272.979" fill-opacity="0" stroke="#FFB8D7" stroke-width="4.5" stroke-linecap="round"/>
    </g>
    <g>
      <path d="M198.907,259.752 L198.907,259.752" fill="#FFDEE6"/>
      <path d="M198.907,259.752 L198.907,259.752" fill-opacity="0" stroke="#FFB8D7" stroke-width="4.5" stroke-linecap="round"/>
    </g>
    <g>
      <path d="M77.217,225.362 L77.217,225.362" fill="#FFDEE6"/>
      <path d="M77.217,225.362 L77.217,225.362" fill-opacity="0" stroke="#F361FF" stroke-width="4.5" stroke-linecap="round"/>
    </g>
    <g>
      <path d="M1934.31,153.935 L1934.31,153.935" fill="#FFDEE6"/>
      <path d="M1934.31,153.935 L1934.31,153.935" fill-opacity="0" stroke="#F361FF" stroke-width="4.5" stroke-linecap="round"/>
    </g>
    <g>
      <path d="M29.6,196.262 L29.6,196.262" fill="#FFDEE6"/>
      <path d="M29.6,196.262 L29.6,196.262" fill-opacity="0" stroke="#F361FF" stroke-width="4.5" stroke-linecap="round"/>
    </g>
    <g>
      <path d="M796.775,249.171 L796.775,249.171" fill="#FFDEE6"/>
      <path d="M796.775,249.171 L796.775,249.171" fill-opacity="0" stroke="#F361FF" stroke-width="4.5" stroke-linecap="round"/>
    </g>
    <g>
      <path d="M1283.53,265.043 L1283.53,265.043" fill="#FFDEE6"/>
      <path d="M1283.53,265.043 L1283.53,265.043" fill-opacity="0" stroke="#CA22FF" stroke-width="4.5" stroke-linecap="round"/>
    </g>
    <g>
      <path d="M1410.51,145.999 L1410.51,145.999" fill="#FFDEE6"/>
      <path d="M1410.51,145.999 L1410.51,145.999" fill-opacity="0" stroke="#CA22FF" stroke-width="4.5" stroke-linecap="round"/>
    </g>
    <g>
      <path d="M241.234,119.544 L241.234,119.544" fill="#FFDEE6"/>
      <path d="M241.234,119.544 L241.234,119.544" fill-opacity="0" stroke="#CA22FF" stroke-width="4.5" stroke-linecap="round"/>
    </g>
    <g>
      <path d="M1005.76,235.943 L1005.76,235.943" fill="#FFDEE6"/>
      <path d="M1005.76,235.943 L1005.76,235.943" fill-opacity="0" stroke="#CBFFF7" stroke-width="4.5" stroke-linecap="round"/>
    </g>
    <g>
      <path d="M350.099,199.001 L350.099,199.001" fill="#FFDEE6"/>
      <path d="M350.099,199.001 L350.099,199.001" fill-opacity="0" stroke="#CBFFF7" stroke-width="4.5" stroke-linecap="round"/>
    </g>
    <g>
      <path d="M1375.19,163.449 L1375.19,163.449" fill="#FFDEE6"/>
      <path d="M1375.19,163.449 L1375.19,163.449" fill-opacity="0" stroke="#CBFFF7" stroke-width="4.5" stroke-linecap="round"/>
    </g>
    <g>
      <path d="M1837.38,255.293 L1837.38,255.293" fill="#FFDEE6"/>
      <path d="M1837.38,255.293 L1837.38,255.293" fill-opacity="0" stroke="#CBFFF7" stroke-width="4.5" stroke-linecap="round"/>
    </g>
  </g>
  <defs>
    <linearGradient id="Gradient_1" gradientUnits="userSpaceOnUse" x1="1024" y1="0" x2="1024" y2="600">
      <stop offset="0" stop-color="#000000"/>
      <stop offset="0.675" stop-color="#003C70"/>
      <stop offset="0.889" stop-color="#006AD5"/>
      <stop offset="1" stop-color="#25A9FF"/>
    </linearGradient>
    <linearGradient id="Gradient_2" gradientUnits="userSpaceOnUse" x1="1024" y1="575" x2="1024" y2="600">
      <stop offset="0.021" stop-color="#004C01"/>
      <stop offset="0.376" stop-color="#018221"/>
      <stop offset="0.671" stop-color="#956607"/>
      <stop offset="0.782" stop-color="#0081FF"/>
      <stop offset="0.846" stop-color="#0100AC"/>
      <stop offset="0.889" stop-color="#0080FF"/>
      <stop offset="0.949" stop-color="#0302B6"/>
      <stop offset="1" stop-color="#140849"/>
    </linearGradient>
    <linearGradient id="Gradient_3" gradientUnits="userSpaceOnUse" x1="1024" y1="425" x2="1024" y2="575">
      <stop offset="0" stop-color="#530055"/>
      <stop offset="1" stop-color="#002A02"/>
    </linearGradient>
  </defs>
</svg>
