<?xml version="1.0" encoding="UTF-8"?>
<!DOCTYPE svg PUBLIC "-//W3C//DTD SVG 1.1//EN" "http://www.w3.org/Graphics/SVG/1.1/DTD/svg11.dtd">
<svg version="1.1" xmlns="http://www.w3.org/2000/svg" xmlns:xlink="http://www.w3.org/1999/xlink" x="0px" y="0px" width="75" height="60" viewBox="0, 0, 75, 60">
  <g id="Layer 1">
    <path d="M23.524,1.938 L28.846,1.938 L28.846,25.623 L23.524,25.623 z" fill="url(#Gradient_1)"/>
    <path d="M23.524,1.938 L28.846,1.938 L28.846,25.623 L23.524,25.623 z" fill="url(#Gradient_2)"/>
    <path d="M35.964,31.145 L48.34,31.145 L48.34,57.494 L35.964,57.494 z" fill="url(#Gradient_3)"/>
    <path d="M35.964,31.145 L48.34,31.145 L48.34,57.494 L35.964,57.494 z" fill="url(#Gradient_4)"/>
    <path d="M50.667,4.315 L62.197,4.315 L62.197,15.097 L50.667,15.097 z" fill="url(#Gradient_5)"/>
    <path d="M50.667,4.315 L62.197,4.315 L62.197,15.097 L50.667,15.097 z" fill="url(#Gradient_6)"/>
    <path d="M21.986,6.148 L32.986,6.148 L32.986,57.494 L21.986,57.494 z" fill="url(#Gradient_7)"/>
    <path d="M31.33,7.837 L34.288,7.837 L34.288,57.494 L31.33,57.494 z" fill="url(#Gradient_8)"/>
    <path d="M21.986,6.148 L32.986,6.148 L32.986,57.494 L21.986,57.494 z" fill="url(#Gradient_9)"/>
    <path d="M31.33,7.837 L34.288,7.837 L34.288,57.494 L31.33,57.494 z" fill="url(#Gradient_10)"/>
    <path d="M49.821,12.317 L66.851,12.317 L66.851,56.565 L49.821,56.565 z" fill="url(#Gradient_11)"/>
    <path d="M49.821,12.317 L66.851,12.317 L66.851,56.565 L49.821,56.565 z" fill="url(#Gradient_12)"/>
    <path d="M3.414,19.758 L12.996,19.758 L12.996,57.494 L3.414,57.494 z" fill="url(#Gradient_13)"/>
    <path d="M0,45.373 L5.544,45.373 L5.544,57.494 L0,57.494 z" fill="url(#Gradient_14)"/>
    <path d="M11.458,15.097 L17.728,15.097 L17.728,57.494 L11.458,57.494 z" fill="url(#Gradient_15)"/>
    <path d="M16.663,19.758 L20.329,19.758 L20.329,57.494 L16.663,57.494 z" fill="url(#Gradient_16)"/>
    <path d="M19.619,25.623 L22.577,25.623 L22.577,57.494 L19.619,57.494 z" fill="url(#Gradient_17)"/>
    <path d="M47.388,25.623 L50.668,25.623 L50.668,56.565 L47.388,56.565 z" fill="url(#Gradient_18)"/>
    <path d="M32.05,47.384 L38.714,47.384 L38.714,56.565 L32.05,56.565 z" fill="url(#Gradient_19)"/>
    <path d="M3.414,19.758 L12.996,19.758 L12.996,57.494 L3.414,57.494 z" fill="url(#Gradient_20)"/>
    <path d="M11.458,15.097 L17.728,15.097 L17.728,57.494 L11.458,57.494 z" fill="url(#Gradient_21)"/>
    <path d="M16.663,19.758 L20.329,19.758 L20.329,57.494 L16.663,57.494 z" fill="url(#Gradient_22)"/>
    <path d="M19.619,25.623 L22.577,25.623 L22.577,57.494 L19.619,57.494 z" fill="url(#Gradient_23)"/>
    <path d="M0,45.933 L5.544,45.933 L5.544,57.494 L0,57.494 z" fill="url(#Gradient_24)"/>
    <path d="M66.02,36.815 L73.306,36.815 L73.306,56.565 L66.02,56.565 z" fill="url(#Gradient_25)"/>
    <path d="M71.875,44.485 L75.647,44.485 L75.647,56.565 L71.875,56.565 z" fill="url(#Gradient_26)"/>
    <path d="M32.05,47.384 L38.714,47.384 L38.714,56.565 L32.05,56.565 z" fill="url(#Gradient_27)"/>
    <path d="M66.02,36.815 L73.306,36.815 L73.306,56.565 L66.02,56.565 z" fill="url(#Gradient_28)"/>
    <path d="M71.875,44.485 L75.647,44.485 L75.647,56.565 L71.875,56.565 z" fill="url(#Gradient_29)"/>
    <path d="M47.388,25.623 L50.668,25.623 L50.668,56.565 L47.388,56.565 z" fill="url(#Gradient_30)"/>
    <path d="M0,61.397 L75.647,61.397 L75.647,55.446 L0,55.446 z" fill="url(#Gradient_31)"/>
  </g>
  <defs>
    <linearGradient id="Gradient_1" gradientUnits="userSpaceOnUse" x1="23.524" y1="13.78" x2="28.846" y2="13.78">
      <stop offset="0" stop-color="#000000"/>
      <stop offset="0.5" stop-color="#FFFE00"/>
      <stop offset="1" stop-color="#000000"/>
    </linearGradient>
    <linearGradient id="Gradient_2" gradientUnits="userSpaceOnUse" x1="26.185" y1="1.938" x2="26.185" y2="25.623">
      <stop offset="0" stop-color="#000884" stop-opacity="0.491"/>
      <stop offset="0.5" stop-color="#FFFC00" stop-opacity="0.518"/>
      <stop offset="1" stop-color="#DED800"/>
    </linearGradient>
    <linearGradient id="Gradient_3" gradientUnits="userSpaceOnUse" x1="35.964" y1="44.319" x2="48.34" y2="44.319">
      <stop offset="0" stop-color="#000000"/>
      <stop offset="0.5" stop-color="#FFFE00"/>
      <stop offset="1" stop-color="#000000"/>
    </linearGradient>
    <linearGradient id="Gradient_4" gradientUnits="userSpaceOnUse" x1="42.152" y1="31.145" x2="42.152" y2="57.494">
      <stop offset="0" stop-color="#000884" stop-opacity="0.491"/>
      <stop offset="0.5" stop-color="#FFFC00" stop-opacity="0.518"/>
      <stop offset="1" stop-color="#DED800"/>
    </linearGradient>
    <linearGradient id="Gradient_5" gradientUnits="userSpaceOnUse" x1="50.667" y1="9.706" x2="62.197" y2="9.706">
      <stop offset="0" stop-color="#000000"/>
      <stop offset="0.5" stop-color="#FFFE00"/>
      <stop offset="1" stop-color="#000000"/>
    </linearGradient>
    <linearGradient id="Gradient_6" gradientUnits="userSpaceOnUse" x1="56.432" y1="4.315" x2="56.432" y2="15.097">
      <stop offset="0" stop-color="#000884" stop-opacity="0.491"/>
      <stop offset="0.5" stop-color="#FFFC00" stop-opacity="0.518"/>
      <stop offset="1" stop-color="#DED800"/>
    </linearGradient>
    <linearGradient id="Gradient_7" gradientUnits="userSpaceOnUse" x1="21.986" y1="31.821" x2="32.986" y2="31.821">
      <stop offset="0" stop-color="#000000"/>
      <stop offset="0.5" stop-color="#FFFE00"/>
      <stop offset="1" stop-color="#000000"/>
    </linearGradient>
    <linearGradient id="Gradient_8" gradientUnits="userSpaceOnUse" x1="31.33" y1="32.666" x2="34.288" y2="32.666">
      <stop offset="0" stop-color="#000000"/>
      <stop offset="0.5" stop-color="#FFFE00"/>
      <stop offset="1" stop-color="#000000"/>
    </linearGradient>
    <linearGradient id="Gradient_9" gradientUnits="userSpaceOnUse" x1="27.486" y1="6.148" x2="27.486" y2="57.494">
      <stop offset="0" stop-color="#000884" stop-opacity="0.491"/>
      <stop offset="0.5" stop-color="#FFFC00" stop-opacity="0.518"/>
      <stop offset="1" stop-color="#DED800"/>
    </linearGradient>
    <linearGradient id="Gradient_10" gradientUnits="userSpaceOnUse" x1="32.809" y1="7.837" x2="32.809" y2="57.494">
      <stop offset="0" stop-color="#000884" stop-opacity="0.491"/>
      <stop offset="0.5" stop-color="#FFFC00" stop-opacity="0.518"/>
      <stop offset="1" stop-color="#DED800"/>
    </linearGradient>
    <linearGradient id="Gradient_11" gradientUnits="userSpaceOnUse" x1="49.821" y1="34.441" x2="66.851" y2="34.441">
      <stop offset="0" stop-color="#000000"/>
      <stop offset="0.5" stop-color="#FFFE00"/>
      <stop offset="1" stop-color="#000000"/>
    </linearGradient>
    <linearGradient id="Gradient_12" gradientUnits="userSpaceOnUse" x1="58.336" y1="12.317" x2="58.336" y2="56.565">
      <stop offset="0" stop-color="#000884" stop-opacity="0.491"/>
      <stop offset="0.5" stop-color="#FFFC00" stop-opacity="0.518"/>
      <stop offset="1" stop-color="#DED800"/>
    </linearGradient>
    <linearGradient id="Gradient_13" gradientUnits="userSpaceOnUse" x1="3.414" y1="38.626" x2="12.996" y2="38.626">
      <stop offset="0" stop-color="#000000"/>
      <stop offset="0.5" stop-color="#FFFE00"/>
      <stop offset="1" stop-color="#000000"/>
    </linearGradient>
    <linearGradient id="Gradient_14" gradientUnits="userSpaceOnUse" x1="0" y1="51.434" x2="5.544" y2="51.434">
      <stop offset="0" stop-color="#000000"/>
      <stop offset="0.5" stop-color="#FFFE00"/>
      <stop offset="1" stop-color="#000000"/>
    </linearGradient>
    <linearGradient id="Gradient_15" gradientUnits="userSpaceOnUse" x1="11.458" y1="36.295" x2="17.728" y2="36.295">
      <stop offset="0" stop-color="#000000"/>
      <stop offset="0.5" stop-color="#FFFE00"/>
      <stop offset="1" stop-color="#000000"/>
    </linearGradient>
    <linearGradient id="Gradient_16" gradientUnits="userSpaceOnUse" x1="16.663" y1="38.626" x2="20.329" y2="38.626">
      <stop offset="0" stop-color="#000000"/>
      <stop offset="0.5" stop-color="#FFFE00"/>
      <stop offset="1" stop-color="#000000"/>
    </linearGradient>
    <linearGradient id="Gradient_17" gradientUnits="userSpaceOnUse" x1="19.619" y1="41.559" x2="22.577" y2="41.559">
      <stop offset="0" stop-color="#000000"/>
      <stop offset="0.5" stop-color="#FFFE00"/>
      <stop offset="1" stop-color="#000000"/>
    </linearGradient>
    <linearGradient id="Gradient_18" gradientUnits="userSpaceOnUse" x1="47.388" y1="41.094" x2="50.668" y2="41.094">
      <stop offset="0" stop-color="#000000"/>
      <stop offset="0.5" stop-color="#FFFE00"/>
      <stop offset="1" stop-color="#000000"/>
    </linearGradient>
    <linearGradient id="Gradient_19" gradientUnits="userSpaceOnUse" x1="32.05" y1="51.975" x2="38.714" y2="51.975">
      <stop offset="0" stop-color="#000000"/>
      <stop offset="0.5" stop-color="#FFFE00"/>
      <stop offset="1" stop-color="#000000"/>
    </linearGradient>
    <linearGradient id="Gradient_20" gradientUnits="userSpaceOnUse" x1="8.205" y1="19.758" x2="8.205" y2="57.494">
      <stop offset="0" stop-color="#000884" stop-opacity="0.491"/>
      <stop offset="0.5" stop-color="#FFFC00" stop-opacity="0.518"/>
      <stop offset="1" stop-color="#DED800"/>
    </linearGradient>
    <linearGradient id="Gradient_21" gradientUnits="userSpaceOnUse" x1="14.593" y1="15.097" x2="14.593" y2="57.494">
      <stop offset="0" stop-color="#000884" stop-opacity="0.491"/>
      <stop offset="0.5" stop-color="#FFFC00" stop-opacity="0.518"/>
      <stop offset="1" stop-color="#DED800"/>
    </linearGradient>
    <linearGradient id="Gradient_22" gradientUnits="userSpaceOnUse" x1="18.496" y1="19.758" x2="18.496" y2="57.494">
      <stop offset="0" stop-color="#000884" stop-opacity="0.491"/>
      <stop offset="0.5" stop-color="#FFFC00" stop-opacity="0.518"/>
      <stop offset="1" stop-color="#DED800"/>
    </linearGradient>
    <linearGradient id="Gradient_23" gradientUnits="userSpaceOnUse" x1="21.098" y1="25.623" x2="21.098" y2="57.494">
      <stop offset="0" stop-color="#000884" stop-opacity="0.491"/>
      <stop offset="0.5" stop-color="#FFFC00" stop-opacity="0.518"/>
      <stop offset="1" stop-color="#DED800"/>
    </linearGradient>
    <linearGradient id="Gradient_24" gradientUnits="userSpaceOnUse" x1="2.772" y1="45.933" x2="2.772" y2="57.494">
      <stop offset="0" stop-color="#000884" stop-opacity="0.491"/>
      <stop offset="0.5" stop-color="#FFFC00" stop-opacity="0.518"/>
      <stop offset="1" stop-color="#DED800"/>
    </linearGradient>
    <linearGradient id="Gradient_25" gradientUnits="userSpaceOnUse" x1="66.02" y1="46.69" x2="73.306" y2="46.69">
      <stop offset="0" stop-color="#000000"/>
      <stop offset="0.5" stop-color="#FFFE00"/>
      <stop offset="1" stop-color="#000000"/>
    </linearGradient>
    <linearGradient id="Gradient_26" gradientUnits="userSpaceOnUse" x1="71.875" y1="50.525" x2="75.647" y2="50.525">
      <stop offset="0" stop-color="#000000"/>
      <stop offset="0.5" stop-color="#FFFE00"/>
      <stop offset="1" stop-color="#000000"/>
    </linearGradient>
    <linearGradient id="Gradient_27" gradientUnits="userSpaceOnUse" x1="35.382" y1="47.384" x2="35.382" y2="56.565">
      <stop offset="0" stop-color="#000884" stop-opacity="0.491"/>
      <stop offset="0.5" stop-color="#FFFC00" stop-opacity="0.518"/>
      <stop offset="1" stop-color="#DED800"/>
    </linearGradient>
    <linearGradient id="Gradient_28" gradientUnits="userSpaceOnUse" x1="69.663" y1="36.815" x2="69.663" y2="56.565">
      <stop offset="0" stop-color="#000884" stop-opacity="0.491"/>
      <stop offset="0.5" stop-color="#FFFC00" stop-opacity="0.518"/>
      <stop offset="1" stop-color="#DED800"/>
    </linearGradient>
    <linearGradient id="Gradient_29" gradientUnits="userSpaceOnUse" x1="73.761" y1="44.485" x2="73.761" y2="56.565">
      <stop offset="0" stop-color="#000884" stop-opacity="0.491"/>
      <stop offset="0.5" stop-color="#FFFC00" stop-opacity="0.518"/>
      <stop offset="1" stop-color="#DED800"/>
    </linearGradient>
    <linearGradient id="Gradient_30" gradientUnits="userSpaceOnUse" x1="49.028" y1="25.623" x2="49.028" y2="56.565">
      <stop offset="0" stop-color="#000884" stop-opacity="0.491"/>
      <stop offset="0.5" stop-color="#FFFC00" stop-opacity="0.518"/>
      <stop offset="1" stop-color="#DED800"/>
    </linearGradient>
    <linearGradient id="Gradient_31" gradientUnits="userSpaceOnUse" x1="0" y1="58.421" x2="75.647" y2="58.421">
      <stop offset="0" stop-color="#20B600"/>
      <stop offset="0.124" stop-color="#9AFF19"/>
      <stop offset="0.274" stop-color="#0AB500"/>
      <stop offset="0.402" stop-color="#2CFF00"/>
      <stop offset="0.577" stop-color="#2DFFC1"/>
      <stop offset="0.748" stop-color="#2DB900"/>
      <stop offset="0.885" stop-color="#2EFF00"/>
      <stop offset="1" stop-color="#D4FF00"/>
    </linearGradient>
  </defs>
</svg>
