<?xml version="1.0" encoding="UTF-8"?>
<!DOCTYPE svg PUBLIC "-//W3C//DTD SVG 1.1//EN" "http://www.w3.org/Graphics/SVG/1.1/DTD/svg11.dtd">
<svg version="1.1" xmlns="http://www.w3.org/2000/svg" xmlns:xlink="http://www.w3.org/1999/xlink" x="0px" y="0px" width="35" height="10" viewBox="0, 0, 35, 10">
  <g id="Layer 1">
    <g>
      <path d="M4.225,5.458 L10.243,3.889 L27.052,4.425 L35,6.438 L26.116,10 L4.2,8.596 L0,7.197 L4.225,5.458 z" fill="url(#Gradient_1)"/>
      <path d="M4.225,5.458 L10.243,3.889 L27.052,4.425 L35,6.438 L26.116,10 L4.2,8.596 L0,7.197 L4.225,5.458 z" fill="url(#Gradient_2)"/>
      <path d="M30.204,0 L33.387,0 L31.361,5.805 L25.766,6.231 z" fill="url(#Gradient_3)"/>
      <path d="M11.506,5.495 L34.899,6.528 L29.716,8.595 L25.316,9.856 L11.068,8.899 L8.707,7.016 L11.506,5.495 z" fill="url(#Gradient_4)"/>
      <path d="M6.396,3.58 L10.243,3.889 L4.225,5.458 z" fill="url(#Gradient_5)"/>
      <path d="M5.096,9.303 L10.026,9.211 L9.506,8.046 L5.096,8.044 L2.249,8.859 L5.096,9.303 z" fill="url(#Gradient_6)"/>
    </g>
  </g>
  <defs>
    <linearGradient id="Gradient_1" gradientUnits="userSpaceOnUse" x1="17.5" y1="3.889" x2="17.5" y2="10">
      <stop offset="0" stop-color="#FFD9FA"/>
      <stop offset="0.5" stop-color="#FF0E00"/>
      <stop offset="1" stop-color="#000000"/>
    </linearGradient>
    <radialGradient id="Gradient_2" gradientUnits="userSpaceOnUse" cx="17.5" cy="6.944" r="17.5">
      <stop offset="0" stop-color="#FF0A00" stop-opacity="0.45"/>
      <stop offset="1" stop-color="#000000" stop-opacity="0.459"/>
    </radialGradient>
    <linearGradient id="Gradient_3" gradientUnits="userSpaceOnUse" x1="27.966" y1="0.292" x2="31.187" y2="5.939">
      <stop offset="0" stop-color="#FFFFFF"/>
      <stop offset="0.5" stop-color="#FF0F00"/>
      <stop offset="1" stop-color="#000000"/>
    </linearGradient>
    <linearGradient id="Gradient_4" gradientUnits="userSpaceOnUse" x1="21.803" y1="5.495" x2="21.803" y2="9.856">
      <stop offset="0" stop-color="#920500"/>
      <stop offset="0.496" stop-color="#FF0700"/>
      <stop offset="1" stop-color="#2C0300"/>
    </linearGradient>
    <linearGradient id="Gradient_5" gradientUnits="userSpaceOnUse" x1="7.077" y1="3.581" x2="7.392" y2="5.457">
      <stop offset="0" stop-color="#FF22E2"/>
      <stop offset="1" stop-color="#000000"/>
    </linearGradient>
    <linearGradient id="Gradient_6" gradientUnits="userSpaceOnUse" x1="6.137" y1="-9.303" x2="6.137" y2="-8.044" gradientTransform="matrix(1, 0, 0, -1, 0, 0)">
      <stop offset="0" stop-color="#000000"/>
      <stop offset="0.389" stop-color="#FF2B1B"/>
      <stop offset="0.5" stop-color="#FF3321"/>
      <stop offset="1" stop-color="#000000"/>
    </linearGradient>
  </defs>
</svg>
