<?xml version="1.0" encoding="UTF-8"?>
<!DOCTYPE svg PUBLIC "-//W3C//DTD SVG 1.1//EN" "http://www.w3.org/Graphics/SVG/1.1/DTD/svg11.dtd">
<svg version="1.1" xmlns="http://www.w3.org/2000/svg" xmlns:xlink="http://www.w3.org/1999/xlink" x="0px" y="0px" width="60" height="60" viewBox="0, 0, 60, 60">
  <g id="Background">
    <rect x="0" y="0" width="60" height="60" fill="#FFFFFF" fill-opacity="0"/>
  </g>
  <g id="Layer 3">
    <g>
      <g>
        <path d="M2.262,58.585 C2.574,55.784 2.476,56.456 2.914,53.479 C3.468,49.71 4.142,46.007 4.608,42.202 C5.189,37.454 5.42,32.649 6.171,27.947 C7.054,22.419 8.246,17.083 9.168,11.564 C9.331,10.587 10.386,2.84 10.861,2.84 C11.298,2.84 10.751,4.256 10.731,4.968 C10.707,5.818 10.731,6.67 10.731,7.521 C10.731,13.286 11.924,12.093 12.816,16.67 C12.963,17.426 12.594,18.912 13.076,19.011 C13.629,19.124 16.547,6.64 16.854,4.968 C16.863,4.92 17.61,0.627 17.766,0.713 C18.268,0.986 17.956,2.411 18.027,3.266 C18.43,8.097 18.927,12.907 19.33,17.734 C19.473,19.452 19.474,22.169 19.721,22.202 C21.013,22.378 23.625,9.593 23.89,7.521 C24.286,4.412 24.228,2.201 24.541,2.84 C24.933,3.639 24.587,10.867 24.671,12.202 C25.069,18.474 27.434,22.44 29.883,26.883 C30.274,27.592 30.544,28.551 31.055,29.011 C34.747,32.326 38.403,10.592 39.003,6.67 C39.143,5.752 39.306,4.84 39.394,3.904 C39.48,2.99 38.958,1.138 39.524,1.138 C40.044,1.138 40.16,6.441 40.175,6.67 C40.328,9.001 41.109,20.231 42.13,21.564 C42.471,22.009 43.147,22.315 43.433,21.777 C43.896,20.904 43.638,19.486 43.823,18.372 C44.572,13.89 45.463,9.35 46.429,4.968 C46.826,3.167 47.423,0.487 47.471,0.5 C47.95,0.63 47.637,2.063 47.732,2.84 C48.09,5.76 48.345,8.384 49.035,11.138 C49.583,13.327 50.513,18.997 51.25,20.5 C51.653,21.323 52.277,21.808 52.683,22.628 C53.613,24.504 54.291,27.447 54.898,29.649 C56.637,35.962 59.684,49.375 60.239,56.032 C61.043,65.661 59.4,51.521 60.5,60.5" fill="url(#Gradient_1)"/>
        <path d="M2.262,58.585 C2.574,55.784 2.476,56.456 2.914,53.479 C3.468,49.71 4.142,46.007 4.608,42.202 C5.189,37.454 5.42,32.649 6.171,27.947 C7.054,22.419 8.246,17.083 9.168,11.564 C9.331,10.587 10.386,2.84 10.861,2.84 C11.298,2.84 10.751,4.256 10.731,4.968 C10.707,5.818 10.731,6.67 10.731,7.521 C10.731,13.286 11.924,12.093 12.816,16.67 C12.963,17.426 12.594,18.912 13.076,19.011 C13.629,19.124 16.547,6.64 16.854,4.968 C16.863,4.92 17.61,0.627 17.766,0.713 C18.268,0.986 17.956,2.411 18.027,3.266 C18.43,8.097 18.927,12.907 19.33,17.734 C19.473,19.452 19.474,22.169 19.721,22.202 C21.013,22.378 23.625,9.593 23.89,7.521 C24.286,4.412 24.228,2.201 24.541,2.84 C24.933,3.639 24.587,10.867 24.671,12.202 C25.069,18.474 27.434,22.44 29.883,26.883 C30.274,27.592 30.544,28.551 31.055,29.011 C34.747,32.326 38.403,10.592 39.003,6.67 C39.143,5.752 39.306,4.84 39.394,3.904 C39.48,2.99 38.958,1.138 39.524,1.138 C40.044,1.138 40.16,6.441 40.175,6.67 C40.328,9.001 41.109,20.231 42.13,21.564 C42.471,22.009 43.147,22.315 43.433,21.777 C43.896,20.904 43.638,19.486 43.823,18.372 C44.572,13.89 45.463,9.35 46.429,4.968 C46.826,3.167 47.423,0.487 47.471,0.5 C47.95,0.63 47.637,2.063 47.732,2.84 C48.09,5.76 48.345,8.384 49.035,11.138 C49.583,13.327 50.513,18.997 51.25,20.5 C51.653,21.323 52.277,21.808 52.683,22.628 C53.613,24.504 54.291,27.447 54.898,29.649 C56.637,35.962 59.684,49.375 60.239,56.032 C61.043,65.661 59.4,51.521 60.5,60.5" fill-opacity="0" stroke="#FF0005" stroke-width="1" stroke-opacity="0.183" stroke-linecap="round"/>
      </g>
      <g>
        <path d="M0.833,60.5 C1.475,57.951 0.561,55.533 0.561,53.075 C0.561,50.969 0.356,48.531 0.697,46.477 C1.576,41.175 3.846,36.477 4.499,31.005 C4.829,28.239 4.499,24.732 4.499,21.904 C4.499,20.241 4.199,10.072 5.721,10.072 C6.167,10.072 5.297,11.4 5.178,12.12 C4.852,14.087 4.985,16.704 5.042,18.718 C5.188,23.844 7.605,25.439 9.252,29.185 C10.405,31.807 10.065,30.885 10.746,33.735 C10.927,34.494 10.853,36.376 11.289,36.01 C11.822,35.564 11.344,33.982 11.561,33.053 C11.762,32.19 12.216,31.56 12.511,30.777 C12.76,30.117 12.734,28.893 13.19,28.73 C13.669,28.558 13.958,30.399 14.412,30.095 C15.082,29.646 17.677,17.82 17.943,16.216 C18.333,13.862 18.758,12.33 18.758,9.845 C18.758,9.086 18.782,8.327 18.758,7.569 C18.736,6.884 18.332,5.036 18.622,5.522 C18.987,6.133 18.879,7.197 19.029,8.024 C19.57,11 19.905,13.531 19.98,16.671 C20,17.504 19.887,18.354 19.98,19.173 C20.427,23.104 23.14,24.231 24.733,26.454 C25.129,27.008 25.408,27.771 25.683,28.502 C25.954,29.219 25.868,30.6 26.362,30.777 C27.516,31.191 28.798,24.634 29.078,24.634 C29.488,24.634 29.048,26.054 29.214,26.682 C29.622,28.221 30.549,29.255 30.979,30.777 C31.182,31.493 30.921,33.183 31.387,33.053 C31.896,32.91 31.603,31.353 31.794,30.55 C31.794,30.55 33.152,26.454 33.152,26.454 C33.578,24.417 33.845,21.325 33.967,19.173 C34.152,15.912 33.434,13.122 33.967,9.845 C33.992,9.692 35.328,2.749 35.597,3.019 C36.062,3.487 35.597,4.839 35.597,5.749 C35.597,6.735 35.597,7.721 35.597,8.707 C35.597,17.372 38.054,14.543 39.942,21.221 C40.514,23.244 41.226,25.822 41.436,28.047 C41.499,28.721 41.028,30.095 41.436,30.095 C41.925,30.095 41.989,28.741 42.251,28.047 C42.981,26.109 43.729,23.957 44.016,21.676 C44.32,19.256 43.995,17.266 44.152,17.353 C44.69,17.654 44.615,19.11 44.966,19.856 C45.304,20.573 45.792,21.049 46.189,21.676 C47.381,23.564 48.197,25.673 48.769,28.275 C48.813,28.474 49.295,32.621 49.448,32.598 C49.644,32.568 51.247,28.246 51.349,27.819 C51.52,27.101 51.173,25.732 51.621,25.544 C52.025,25.375 51.723,26.953 51.892,27.592 C52,27.999 53.278,31.508 53.929,31.005 C54.449,30.603 54.365,29.217 54.472,28.275 C54.625,26.933 54.391,25.537 54.472,24.179 C54.634,21.467 55.272,19.038 55.694,16.443 C55.952,14.863 56.157,13.261 56.373,11.665 C56.486,10.838 56.192,8.783 56.645,9.162 C57.186,9.615 56.917,15.476 56.917,16.443 C56.917,24.887 58.035,22.996 59.225,29.64 C60.009,34.02 58.834,56.513 60.5,60.5" fill="url(#Gradient_2)"/>
        <path d="M0.833,60.5 C1.475,57.951 0.561,55.533 0.561,53.075 C0.561,50.969 0.356,48.531 0.697,46.477 C1.576,41.175 3.846,36.477 4.499,31.005 C4.829,28.239 4.499,24.732 4.499,21.904 C4.499,20.241 4.199,10.072 5.721,10.072 C6.167,10.072 5.297,11.4 5.178,12.12 C4.852,14.087 4.985,16.704 5.042,18.718 C5.188,23.844 7.605,25.439 9.252,29.185 C10.405,31.807 10.065,30.885 10.746,33.735 C10.927,34.494 10.853,36.376 11.289,36.01 C11.822,35.564 11.344,33.982 11.561,33.053 C11.762,32.19 12.216,31.56 12.511,30.777 C12.76,30.117 12.734,28.893 13.19,28.73 C13.669,28.558 13.958,30.399 14.412,30.095 C15.082,29.646 17.677,17.82 17.943,16.216 C18.333,13.862 18.758,12.33 18.758,9.845 C18.758,9.086 18.782,8.327 18.758,7.569 C18.736,6.884 18.332,5.036 18.622,5.522 C18.987,6.133 18.879,7.197 19.029,8.024 C19.57,11 19.905,13.531 19.98,16.671 C20,17.504 19.887,18.354 19.98,19.173 C20.427,23.104 23.14,24.231 24.733,26.454 C25.129,27.008 25.408,27.771 25.683,28.502 C25.954,29.219 25.868,30.6 26.362,30.777 C27.516,31.191 28.798,24.634 29.078,24.634 C29.488,24.634 29.048,26.054 29.214,26.682 C29.622,28.221 30.549,29.255 30.979,30.777 C31.182,31.493 30.921,33.183 31.387,33.053 C31.896,32.91 31.603,31.353 31.794,30.55 C31.794,30.55 33.152,26.454 33.152,26.454 C33.578,24.417 33.845,21.325 33.967,19.173 C34.152,15.912 33.434,13.122 33.967,9.845 C33.992,9.692 35.328,2.749 35.597,3.019 C36.062,3.487 35.597,4.839 35.597,5.749 C35.597,6.735 35.597,7.721 35.597,8.707 C35.597,17.372 38.054,14.543 39.942,21.221 C40.514,23.244 41.226,25.822 41.436,28.047 C41.499,28.721 41.028,30.095 41.436,30.095 C41.925,30.095 41.989,28.741 42.251,28.047 C42.981,26.109 43.729,23.957 44.016,21.676 C44.32,19.256 43.995,17.266 44.152,17.353 C44.69,17.654 44.615,19.11 44.966,19.856 C45.304,20.573 45.792,21.049 46.189,21.676 C47.381,23.564 48.197,25.673 48.769,28.275 C48.813,28.474 49.295,32.621 49.448,32.598 C49.644,32.568 51.247,28.246 51.349,27.819 C51.52,27.101 51.173,25.732 51.621,25.544 C52.025,25.375 51.723,26.953 51.892,27.592 C52,27.999 53.278,31.508 53.929,31.005 C54.449,30.603 54.365,29.217 54.472,28.275 C54.625,26.933 54.391,25.537 54.472,24.179 C54.634,21.467 55.272,19.038 55.694,16.443 C55.952,14.863 56.157,13.261 56.373,11.665 C56.486,10.838 56.192,8.783 56.645,9.162 C57.186,9.615 56.917,15.476 56.917,16.443 C56.917,24.887 58.035,22.996 59.225,29.64 C60.009,34.02 58.834,56.513 60.5,60.5" fill-opacity="0" stroke="#FFB200" stroke-width="1" stroke-opacity="0.436" stroke-linecap="round"/>
      </g>
      <g>
        <path d="M60.5,60.13 C57.227,60.436 55.423,58.337 55.423,52.648 C55.423,51.061 55.236,49.443 55.423,47.887 C55.694,45.619 56.501,43.494 56.645,41.085 C56.735,39.581 56.645,38.062 56.645,36.551 C56.645,35.87 56.749,35.168 56.645,34.51 C56.516,33.693 56.192,32.999 55.966,32.243 C55.74,31.487 55.786,29.837 55.287,29.976 C54.896,30.085 55.375,36.646 55.287,37.231 C54.89,39.884 54.386,38.949 53.386,40.858 C52.754,42.064 51.363,45.696 51.077,47.207 C50.739,48.997 51.157,51.328 50.942,51.288 C49.923,51.099 49.63,47.707 48.905,46.98 C47.797,45.87 47.429,48.37 46.324,46.526 C45.206,44.659 47.7,32.482 46.053,27.482 C45.981,27.265 44.163,23.401 44.016,23.401 C43.586,23.401 44.314,24.748 44.423,25.441 C44.713,27.278 45.046,30.611 44.695,32.47 C44.151,35.347 40.274,41.484 39.535,45.393 C39.44,45.893 39.664,51.717 39.535,51.741 C38.993,51.842 38.743,50.486 38.312,49.927 C37.559,48.948 36.458,48.687 35.868,47.433 C34.895,45.367 36.339,40.88 36.411,38.591 C36.485,36.266 36.235,34.446 35.868,32.243 C35.756,31.572 35.892,29.71 35.597,30.202 C35.244,30.79 35.661,31.872 35.597,32.696 C35.528,33.574 35.061,36.605 34.646,37.458 C33.622,39.562 32.168,40.516 31.387,43.126 C30.995,44.435 30.769,49.438 30.572,49.701 C29.892,50.609 28.76,48.336 27.992,49.02 C27.343,49.598 27.518,53.025 25.955,51.514 C24.702,50.303 24.258,46.416 24.054,44.259 C23.99,43.583 24.328,42.219 23.918,42.219 C23.771,42.219 21.7,54.615 20.523,46.753 C20.402,45.943 20.411,45.093 20.387,44.259 C20.312,41.618 21.103,40.166 21.338,37.684 C21.436,36.646 21.012,28.842 20.795,28.842 C20.571,28.842 19.286,34.807 19.029,35.417 C17.799,38.342 16.612,43.194 15.425,46.324 C15.284,46.696 13.949,53.198 13.706,53.158 C13.476,53.119 11.928,45.28 11.581,45.28 C11.126,45.28 10.192,52.008 10.202,52.421 C10.269,55.036 7.495,55.471 7.215,52.195 C7.56,39.262 9.111,38.239 8.738,38.551 C7.759,39.368 5.879,43.704 5.395,44.967 C4.895,46.272 3.988,50.602 3.005,52.875 C1.415,56.55 0.993,57.927 0.833,60.5" fill="url(#Gradient_3)"/>
        <path d="M60.5,60.13 C57.227,60.436 55.423,58.337 55.423,52.648 C55.423,51.061 55.236,49.443 55.423,47.887 C55.694,45.619 56.501,43.494 56.645,41.085 C56.735,39.581 56.645,38.062 56.645,36.551 C56.645,35.87 56.749,35.168 56.645,34.51 C56.516,33.693 56.192,32.999 55.966,32.243 C55.74,31.487 55.786,29.837 55.287,29.976 C54.896,30.085 55.375,36.646 55.287,37.231 C54.89,39.884 54.386,38.949 53.386,40.858 C52.754,42.064 51.363,45.696 51.077,47.207 C50.739,48.997 51.157,51.328 50.942,51.288 C49.923,51.099 49.63,47.707 48.905,46.98 C47.797,45.87 47.429,48.37 46.324,46.526 C45.206,44.659 47.7,32.482 46.053,27.482 C45.981,27.265 44.163,23.401 44.016,23.401 C43.586,23.401 44.314,24.748 44.423,25.441 C44.713,27.278 45.046,30.611 44.695,32.47 C44.151,35.347 40.274,41.484 39.535,45.393 C39.44,45.893 39.664,51.717 39.535,51.741 C38.993,51.842 38.743,50.486 38.312,49.927 C37.559,48.948 36.458,48.687 35.868,47.433 C34.895,45.367 36.339,40.88 36.411,38.591 C36.485,36.266 36.235,34.446 35.868,32.243 C35.756,31.572 35.892,29.71 35.597,30.202 C35.244,30.79 35.661,31.872 35.597,32.696 C35.528,33.574 35.061,36.605 34.646,37.458 C33.622,39.562 32.168,40.516 31.387,43.126 C30.995,44.435 30.769,49.438 30.572,49.701 C29.892,50.609 28.76,48.336 27.992,49.02 C27.343,49.598 27.518,53.025 25.955,51.514 C24.702,50.303 24.258,46.416 24.054,44.259 C23.99,43.583 24.328,42.219 23.918,42.219 C23.771,42.219 21.7,54.615 20.523,46.753 C20.402,45.943 20.411,45.093 20.387,44.259 C20.312,41.618 21.103,40.166 21.338,37.684 C21.436,36.646 21.012,28.842 20.795,28.842 C20.571,28.842 19.286,34.807 19.029,35.417 C17.799,38.342 16.612,43.194 15.425,46.324 C15.284,46.696 13.949,53.198 13.706,53.158 C13.476,53.119 11.928,45.28 11.581,45.28 C11.126,45.28 10.192,52.008 10.202,52.421 C10.269,55.036 7.495,55.471 7.215,52.195 C7.56,39.262 9.111,38.239 8.738,38.551 C7.759,39.368 5.879,43.704 5.395,44.967 C4.895,46.272 3.988,50.602 3.005,52.875 C1.415,56.55 0.993,57.927 0.833,60.5" fill-opacity="0" stroke="#FFF781" stroke-width="1" stroke-opacity="0.381" stroke-linecap="round"/>
      </g>
    </g>
  </g>
  <defs>
    <radialGradient id="Gradient_1" gradientUnits="userSpaceOnUse" cx="31.381" cy="30.5" r="29.563">
      <stop offset="0" stop-color="#FF1300"/>
      <stop offset="0.137" stop-color="#FF7700"/>
      <stop offset="0.261" stop-color="#FFA800"/>
      <stop offset="0.479" stop-color="#FFD402"/>
      <stop offset="0.624" stop-color="#FF8900"/>
      <stop offset="0.735" stop-color="#FF9100"/>
      <stop offset="0.872" stop-color="#FF7600"/>
      <stop offset="1" stop-color="#FF1100"/>
    </radialGradient>
    <radialGradient id="Gradient_2" gradientUnits="userSpaceOnUse" cx="30.5" cy="31.756" r="28.83">
      <stop offset="0" stop-color="#E97500"/>
      <stop offset="0.154" stop-color="#FFD107"/>
      <stop offset="0.291" stop-color="#FFF10D"/>
      <stop offset="0.406" stop-color="#FFD20D"/>
      <stop offset="0.547" stop-color="#F16216"/>
      <stop offset="0.675" stop-color="#ECEB00"/>
      <stop offset="0.829" stop-color="#F2D500"/>
      <stop offset="1" stop-color="#DF7D09"/>
    </radialGradient>
    <radialGradient id="Gradient_3" gradientUnits="userSpaceOnUse" cx="30.666" cy="41.95" r="23.868">
      <stop offset="0" stop-color="#FF881C"/>
      <stop offset="0.137" stop-color="#FEFF96"/>
      <stop offset="0.274" stop-color="#FFFC00"/>
      <stop offset="0.389" stop-color="#FFF400"/>
      <stop offset="0.5" stop-color="#FF9F00"/>
      <stop offset="0.645" stop-color="#FFFF00"/>
      <stop offset="0.829" stop-color="#FFD328"/>
      <stop offset="1" stop-color="#FFF000"/>
    </radialGradient>
  </defs>
</svg>
