<?xml version="1.0" encoding="UTF-8"?>
<!DOCTYPE svg PUBLIC "-//W3C//DTD SVG 1.1//EN" "http://www.w3.org/Graphics/SVG/1.1/DTD/svg11.dtd">
<svg version="1.1" xmlns="http://www.w3.org/2000/svg" xmlns:xlink="http://www.w3.org/1999/xlink" x="0px" y="0px" width="240" height="120" viewBox="0, 0, 240, 120">
  <g id="Layer 1">
    <path d="M17.946,54.123 C17.037,53.197 12.731,56.59 12.929,50.856 C12.948,50.291 12.915,49.65 13.045,49.179 C13.169,48.727 13.428,48.61 13.623,48.34 C13.968,47.864 14.33,47.461 14.664,46.943 C14.872,46.62 15.03,46.131 15.242,45.824 C16.133,44.533 17.27,43.331 18.249,42.47 C21.793,40.688 22.105,40.84 22.413,40.793 C23.033,40.699 23.643,40.334 24.264,40.234 C25.371,40.056 26.508,40.234 27.618,40.234 C29.243,40.234 32.644,40.038 34.095,41.632 C34.733,42.333 35.381,43.435 35.945,44.427 C36.632,45.634 37.728,47.83 37.88,50.034 C38.188,54.496 35.591,52.307 34.442,52.812 C33.375,53.281 34.436,60 32.599,60 C28.51,60 18.203,60.204 17.902,59.801" fill="url(#Gradient_1)"/>
    <path d="M75.501,58.166 C74.744,57.447 73.896,58.18 73.125,57.893 C71.625,57.335 72.966,57.579 71.767,56.525 C71.551,56.336 71.297,56.481 71.088,56.252 C70.868,56.01 70.745,55.382 70.522,55.158 C69.899,54.943 69.621,54.963 69.051,54.338 C68.851,54.118 68.454,54.043 68.486,53.517 C68.594,51.69 71.145,52.3 71.654,52.423 C72.074,52.525 72.499,52.648 72.899,52.97 C73.139,53.164 73.332,53.642 73.578,53.791 C73.797,53.923 74.037,53.658 74.257,53.791 C74.946,54.207 75.613,55.473 76.293,55.978 C76.768,56.331 77.286,56.21 77.764,56.525 C77.915,56.625 78.693,57.563 78.896,57.346 C79.383,56.822 79.619,52.256 79.349,51.603 C79.329,51.555 78.211,51.076 78.104,51.056 C76.562,50.769 75.005,51.093 73.465,50.782 C73.239,50.737 73.004,50.926 72.785,50.782 C72.56,50.634 71.204,48.963 70.975,48.595 C70.285,47.483 69.639,46.489 69.391,44.493 C69.236,43.242 69.141,41.518 69.504,40.391 C69.896,39.172 72.613,35.88 73.351,35.194 C73.642,34.925 73.964,34.9 74.257,34.648 C75.742,33.366 74.199,34.248 75.501,33.28 C76.173,32.781 76.865,32.63 77.538,32.186 C78.326,31.667 79.117,30.958 79.914,30.546 C82.422,29.247 88.952,28.347 91.343,29.999 C92.285,30.649 93.142,31.654 94.059,32.46 C94.24,32.619 94.446,32.561 94.625,32.733 C95.309,33.395 96.461,34.855 97.001,36.015 C97.594,37.289 97.567,38.636 97.567,40.391 C97.567,41.155 97.604,42.399 97.453,43.125 C97.075,44.958 96.44,45.109 95.756,45.86 C95.372,46.282 94.98,46.68 94.625,47.227 C94.376,47.61 94.2,48.236 93.946,48.595 C93.111,49.772 91.957,49.524 90.89,51.329 C90.385,52.185 89.219,54.685 89.872,56.525 C90.223,57.515 90.758,56.959 91.117,56.525 C93.46,53.694 89.982,57.244 92.588,54.338 C92.804,54.096 93.053,54.048 93.267,53.791 C93.51,53.497 93.698,52.969 93.946,52.697 C94.496,52.092 97.481,50.509 98.132,50.509 C98.377,50.509 100.669,50.327 100.622,50.782 C100.548,51.493 98.866,52.357 98.585,52.697 C98.369,52.958 98.231,53.511 98.019,53.791 C97.81,54.067 97.542,54.028 97.34,54.338 C97.115,54.684 96.993,55.335 96.775,55.705 C96.442,56.268 96.018,56.421 95.643,56.799 C94.947,57.499 94.203,58.414 93.493,58.987 C92.005,60.185 89.769,60.039 87.496,59.807 C85.275,59.58 79.813,60.033 76.393,60.033" fill="url(#Gradient_2)"/>
    <path d="M154.156,56.069 C153.215,51.968 154.183,48.735 155.922,47.535 C156.701,46.997 157.631,47.31 158.43,47.31 C158.816,47.31 160.392,47.635 160.661,47.31 C161.56,46.224 161.448,43.387 161.497,43.268 C161.628,42.95 161.873,43.369 162.055,43.268 C162.555,42.989 163.52,42.11 163.82,41.022 C164.001,40.365 164.203,37.247 164.006,36.531 C163.331,34.082 163.607,37.364 162.891,35.632 C162.694,35.157 162.582,31.405 161.497,29.344 C161.116,28.62 160.636,28.263 160.196,27.772 C156.556,23.712 152.819,26.874 149.045,26.874 C148.307,26.874 147.45,27.167 146.722,26.874 C146.142,26.64 145.651,25.872 145.05,25.751 C143.949,25.529 142.686,25.551 141.611,26.2 C140.897,26.632 141.226,26.727 140.496,26.874 C140.126,26.949 139.748,26.726 139.381,26.874 C139.204,26.945 136.064,29.295 136.036,29.344 C134.946,31.26 135.681,33.544 135.385,34.734 C134.942,36.521 133.792,34.607 133.341,37.878 C132.81,41.731 134.92,42.218 135.2,42.819 C136.655,45.945 134.454,42.428 135.571,45.514 C135.7,45.87 135.933,45.963 136.129,45.963 C136.489,45.963 137.324,45.081 138.359,45.289 C139.079,45.434 139.881,46.017 140.589,46.412 C140.843,46.554 141.587,47.028 141.797,47.535 C142.058,48.165 142.811,52.047 142.448,52.925 C142.316,53.242 142.073,52.998 141.89,52.925 C141.504,52.769 141.155,52.256 140.775,52.026 C140.056,51.592 139.278,51.5 138.545,51.353 C137.814,51.205 137.049,51.353 136.315,51.353 C136.129,51.353 135.943,51.353 135.757,51.353 C135.571,51.353 135.2,50.904 135.2,51.353 C135.2,52.189 136.893,53.223 136.686,54.721 C136.665,54.877 134.88,54.021 133.899,53.823 C132.678,53.577 131.171,52.64 129.996,53.823 C129.804,54.016 129.438,53.994 129.438,54.497 C129.438,54.988 131.028,55.289 131.204,55.395 C132.013,55.884 132.749,56.79 133.527,57.416 C134.434,58.147 136.297,59.465 137.236,60.033 C158.575,59.886 160.744,60.444 161.932,59.248 C163.179,57.993 161.944,58.056 163.285,57.515 C163.407,57.466 166.794,55.206 166.794,55.17 C166.794,54.586 166.459,54.272 166.236,54.048 C165.725,53.533 162.298,53.916 161.59,54.048 C160.753,54.203 159.995,54.488 159.174,54.946 C158.983,55.052 158.755,55.73 158.616,55.395 C158.015,53.942 160.475,52.019 160.475,51.353 C160.475,50.47 158.946,51.041 158.802,51.128 C156.709,52.393 155.938,52.609 154.435,56.967" fill="url(#Gradient_3)"/>
    <path d="M18.893,108.864 C18.84,105.49 18.015,105.535 17.014,104.325 C16.822,104.093 16.668,103.673 16.462,103.524 C15.905,103.12 15.321,104.081 14.805,102.99 C14.108,101.516 14.668,100.501 12.816,100.053 C11.942,99.842 11.702,101.384 10.606,100.854 C9.162,100.156 9.479,98.215 8.618,97.383 C7.982,96.769 7.066,97.86 6.408,97.383 C5.087,96.425 4.23,92.232 5.303,89.64 C6.076,87.772 7.322,88.442 7.623,88.037 C8.491,86.873 7.149,85.052 7.734,82.697 C8.426,79.908 10.805,76.615 12.153,76.289 C12.697,76.157 13.911,76.726 14.363,76.289 C15.049,75.626 15.208,74.082 16.02,73.886 C17.513,73.525 17.574,75.171 18.782,75.755 C20.106,76.395 21.443,74.159 22.76,74.954 C23.396,75.338 23.84,76.39 24.527,76.556 C25.462,76.782 26.37,75.71 27.289,75.488 C27.893,75.342 29.046,76.084 29.499,75.755 C30.102,75.318 30.481,74.316 31.156,74.153 C32.347,73.865 32.39,75.519 33.366,75.755 C34.281,75.976 36.058,74.512 36.791,75.221 C37.833,76.228 36.854,76.35 37.896,77.357 C38.412,77.856 39.559,77.13 40.105,78.158 C40.739,79.349 41.241,81.579 41.321,83.498 C41.376,84.827 41.104,86.51 41.652,87.503 C42.094,88.304 42.833,87.425 43.309,87.77 C44.165,88.391 44.044,90.842 43.972,92.577 C43.817,96.333 42.507,95.593 41.763,97.65 C41.205,99.191 41.98,100.43 40.989,101.388 C40.694,101.673 39.088,101.419 38.78,101.121 C38.149,100.511 38.342,100.109 37.675,99.786 C35.784,98.872 36.537,102.382 35.355,103.524 C34.669,104.187 33.827,102.763 33.145,103.257 C32.939,103.406 32.785,103.826 32.593,104.058 C31.99,104.787 31.488,105.339 31.488,107.262 C31.488,107.716 31.465,108.277 31.598,108.597 C31.731,108.918 32.151,108.411 32.151,108.864 C32.151,109.029 30.858,109.259 31.046,111.535 C31.482,116.808 35.197,117.02 36.901,116.608 C37.088,116.563 37.321,116.662 37.454,116.341 C37.693,115.763 37.483,111.001 37.564,111.001 C38.473,111.001 37.726,113.938 38.89,113.938 C39.525,113.938 40.368,111.473 40.547,111.535 C40.745,111.603 40.747,115.042 41.873,113.137 C42.174,112.627 43.073,109.35 43.53,109.666 C44.055,110.028 43.533,111.808 43.751,112.336 C44.39,113.878 45.371,109.321 45.961,109.933 C46.296,110.279 46.148,112.589 46.182,112.603 C46.444,112.708 46.616,111.858 46.845,111.535 C47.058,111.234 47.276,110.938 47.508,110.734 C48.21,110.117 48.986,110.2 49.717,110.2 C49.902,110.2 50.234,109.763 50.27,110.2 C50.417,111.979 49.276,111.179 49.276,112.603 C49.276,113.045 50.275,114.437 50.159,115.273 C50.1,115.703 49.794,115.495 49.607,115.54 C49.424,115.584 49.231,115.412 49.055,115.54 C48.319,116.073 48.28,116.875 47.397,116.875 C45.519,116.875 43.641,116.875 41.763,116.875 C40.968,116.875 40.123,116.684 39.332,116.875 C37.901,117.221 39.658,117.063 38.227,117.409 C37.369,117.616 36.324,117.616 35.465,117.409 C34.55,117.188 31.843,116.297 31.046,116.875 C30.84,117.024 30.685,117.444 30.493,117.676 C29.746,118.579 29.103,119.149 28.284,119.545 C26.666,120.327 23.873,119.948 22.207,119.545 C21.66,119.413 21.097,119.677 20.55,119.545 C19.959,119.402 19.483,118.62 18.893,118.477 C18,118.261 17.008,118.901 16.131,118.477 C15.936,118.383 15.773,118.037 15.578,117.943 C14.854,117.593 14.078,118.21 13.368,118.21 C12.827,118.21 12.271,117.672 11.711,117.943 C11.046,118.264 11.294,118.744 10.606,118.744 C10.021,118.744 9.497,117.941 8.949,117.676 C8.821,117.614 6.094,117.943 5.635,117.943 C3.759,117.943 2.062,118.822 0.552,115.54 C0.359,115.119 0,114.834 0,114.205 C0,114.045 1.651,114.417 1.768,114.205 C3.14,111.717 0.994,112.175 0.994,111.535 C0.994,111.09 1.363,111.535 1.547,111.535 C1.731,111.535 1.915,111.535 2.099,111.535 C2.615,111.535 4.011,111.14 4.419,111.535 C4.638,111.746 4.827,112.153 4.972,112.603 C5.093,112.981 5.009,114.116 5.193,113.938 C5.289,113.844 4.336,110.228 4.53,109.666 C5.268,107.525 7.855,116.793 8.507,115.807 C9.1,114.911 9.065,106.686 10.054,108.597 C10.203,108.887 10.047,114.763 10.164,115.273 C10.824,118.141 12.322,115.697 13.037,115.54 C13.4,115.46 15.301,116.478 15.357,116.341 C15.487,116.026 15.357,115.451 15.357,115.006 C15.357,114.561 15.357,114.116 15.357,113.671 C15.357,113.226 15.541,112.336 15.357,112.336 C15.173,112.336 15.341,113.228 15.357,113.671 C15.418,115.286 15.548,116.875 16.352,116.875 C16.539,116.875 16.754,116.88 16.904,116.608 C16.948,116.528 18.296,111.537 18.34,111.268 C18.41,110.846 18.347,110.31 18.451,109.933 C18.582,109.458 18.819,109.221 19.003,108.864" fill="url(#Gradient_4)"/>
    <g>
      <g>
        <path d="M91.988,120.632 C92.126,119.521 92.26,118.167 92.53,117.188 C92.699,116.576 93.108,116.279 93.141,115.548 C93.183,114.648 92.642,115.641 91.988,116.696 C91.37,117.691 90.783,119.404 90.291,117.024 C90.209,116.629 90.392,115.875 90.223,115.712 C89.782,115.285 89.281,117.875 88.459,116.04 C87.344,113.552 88.652,102.942 90.223,102.099 C92.205,101.034 91.606,106.527 92.327,106.527 C92.421,106.527 92.27,105.054 92.327,103.739 C92.432,101.329 93.062,99.91 94.024,99.474 C95.59,98.765 94.763,100.37 95.584,101.115 C96.749,102.17 95.666,99.12 96.738,99.638 C96.991,99.761 97.082,100.577 97.213,101.115 C97.311,101.517 97.223,102.427 97.417,102.427 C97.673,102.427 97.761,101.505 97.96,101.115 C98.203,100.637 98.818,99.849 99.113,99.638 C99.349,99.471 100.042,99.41 100.267,99.474 C100.452,99.527 100.652,100.044 100.81,99.802 C100.991,99.524 100.885,98.741 101.014,98.326 C101.697,96.125 102.445,97.624 103.321,97.178 C103.559,97.057 103.763,96.665 103.999,96.522 C105.171,95.815 106.536,96.358 107.732,96.358 C107.906,96.358 109.547,96.391 109.496,95.538 C109.492,95.47 108.373,94.748 108.275,94.718 C108,94.635 106.58,94.775 106.443,94.554 C105.771,93.472 106.865,92.586 105.628,92.586 C104.901,92.586 104.04,95.613 103.253,94.718 C103.02,94.453 102.96,93.683 102.778,93.242 C102.446,92.44 101.979,92.185 101.828,90.946 C101.526,88.464 103.285,84.703 102.778,82.253 C102.195,79.434 100.559,80.642 100.063,79.629 C99.332,78.133 100.183,78.308 99.181,77.169 C98.996,76.958 98.76,77.193 98.57,77.005 C98.361,76.797 98.23,76.265 98.027,76.021 C97.443,75.314 96.911,76.032 96.331,75.857 C95.727,75.674 94.87,74.705 94.091,75.037 C93.623,75.236 93.425,75.831 92.938,75.693 C92.725,75.632 92.535,75.326 92.327,75.201 C91.378,74.628 90.258,74.083 89.273,74.381 C88.501,74.614 87.751,75.828 86.966,75.529 C86.131,75.21 85.327,74.54 84.455,74.873 C83.777,75.131 83.879,75.64 83.233,75.365 C82.81,75.184 82.431,74.606 82.012,74.381 C80.8,73.73 80.01,74.709 79.026,74.709 C78.244,74.709 77.514,73.616 76.718,74.217 C76.525,74.363 76.375,74.796 76.175,74.873 C75.515,75.125 74.735,74.213 74.072,74.873 C73.417,75.524 73.583,76.267 72.986,77.169 C72.827,77.408 72.614,77.316 72.443,77.497 C72.247,77.704 72.101,78.145 71.9,78.317 C70.999,79.085 71.525,77.584 70.746,79.465 C69.469,82.551 70.914,83.325 70.95,84.714 C70.978,85.805 70.294,86.314 70.135,87.338 C70.072,87.747 70.113,88.216 70.135,88.65 C70.159,89.097 70.386,89.606 70.271,89.962 C70.081,90.551 68.095,89.698 67.896,90.126 C67.761,90.416 67.999,91.078 67.896,91.438 C67.445,93.012 65.135,91.814 64.367,91.93 C64.185,91.957 64.006,92.066 63.824,92.094 C63.643,92.121 63.377,91.723 63.281,92.094 C63.179,92.49 63.343,93.089 63.485,93.406 C63.938,94.418 64.814,94.296 65.249,95.538 C65.374,95.895 65.292,96.591 65.453,96.85 C65.866,97.517 69.034,95.611 69.457,95.866 C70.188,96.308 70.147,97.448 71.153,97.178 C71.361,97.123 71.563,96.985 71.764,96.85 C71.971,96.711 72.176,96.166 72.375,96.358 C72.755,96.725 72.78,98.674 73.121,99.146 C73.41,99.544 74.001,98.901 74.275,98.818 C75.316,98.504 75.533,101.607 75.564,101.607 C75.807,101.607 76.542,96.097 77.533,98.49 C77.8,99.136 77.736,100.343 77.736,101.115 C77.736,101.552 77.555,102.427 77.736,102.427 C77.929,102.427 77.83,101.499 77.94,101.115 C78.162,100.334 78.549,99.279 79.026,99.638 C79.865,100.272 80.159,102.912 80.247,104.723 C80.29,105.593 80.504,107.739 80.179,107.347 C79.996,107.126 80.067,106.354 80.111,105.871 C80.299,103.833 81.099,102.044 81.944,102.427 C82.127,102.51 82.361,102.421 82.487,102.755 C82.756,103.469 82.551,109.643 82.622,109.643 C82.805,109.643 82.633,108.749 82.69,108.331 C82.77,107.751 82.887,107.195 83.03,106.691 C83.484,105.086 84.106,103.03 84.59,105.871 C84.722,106.641 84.618,107.711 84.658,108.495 C84.773,110.703 85.32,113.293 84.523,115.22 C84.008,116.463 83.024,117.079 82.351,116.368 C82.155,116.161 81.808,115.032 81.808,115.548 C81.808,116.701 82.927,117.779 82.555,118.5 C82.397,118.805 82.206,117.982 82.012,117.844 C81.815,117.704 81.601,117.787 81.401,117.68 C80.824,117.37 80.281,116.716 79.704,116.368 C79.523,116.258 79.161,115.589 79.161,116.04 C79.161,116.507 79.527,116.344 79.704,116.532 C79.89,116.728 80.071,116.948 80.247,117.188 C80.874,118.04 81.101,119.531 81.74,120.304 C82.459,121.173 84.292,120.632 85.133,120.632 C87.215,120.632 89.296,120.632 91.377,120.632" fill="url(#Gradient_5)"/>
        <path d="M91.988,120.632 C92.126,119.521 92.26,118.167 92.53,117.188 C92.699,116.576 93.108,116.279 93.141,115.548 C93.183,114.648 92.642,115.641 91.988,116.696 C91.37,117.691 90.783,119.404 90.291,117.024 C90.209,116.629 90.392,115.875 90.223,115.712 C89.782,115.285 89.281,117.875 88.459,116.04 C87.344,113.552 88.652,102.942 90.223,102.099 C92.205,101.034 91.606,106.527 92.327,106.527 C92.421,106.527 92.27,105.054 92.327,103.739 C92.432,101.329 93.062,99.91 94.024,99.474 C95.59,98.765 94.763,100.37 95.584,101.115 C96.749,102.17 95.666,99.12 96.738,99.638 C96.991,99.761 97.082,100.577 97.213,101.115 C97.311,101.517 97.223,102.427 97.417,102.427 C97.673,102.427 97.761,101.505 97.96,101.115 C98.203,100.637 98.818,99.849 99.113,99.638 C99.349,99.471 100.042,99.41 100.267,99.474 C100.452,99.527 100.652,100.044 100.81,99.802 C100.991,99.524 100.885,98.741 101.014,98.326 C101.697,96.125 102.445,97.624 103.321,97.178 C103.559,97.057 103.763,96.665 103.999,96.522 C105.171,95.815 106.536,96.358 107.732,96.358 C107.906,96.358 109.547,96.391 109.496,95.538 C109.492,95.47 108.373,94.748 108.275,94.718 C108,94.635 106.58,94.775 106.443,94.554 C105.771,93.472 106.865,92.586 105.628,92.586 C104.901,92.586 104.04,95.613 103.253,94.718 C103.02,94.453 102.96,93.683 102.778,93.242 C102.446,92.44 101.979,92.185 101.828,90.946 C101.526,88.464 103.285,84.703 102.778,82.253 C102.195,79.434 100.559,80.642 100.063,79.629 C99.332,78.133 100.183,78.308 99.181,77.169 C98.996,76.958 98.76,77.193 98.57,77.005 C98.361,76.797 98.23,76.265 98.027,76.021 C97.443,75.314 96.911,76.032 96.331,75.857 C95.727,75.674 94.87,74.705 94.091,75.037 C93.623,75.236 93.425,75.831 92.938,75.693 C92.725,75.632 92.535,75.326 92.327,75.201 C91.378,74.628 90.258,74.083 89.273,74.381 C88.501,74.614 87.751,75.828 86.966,75.529 C86.131,75.21 85.327,74.54 84.455,74.873 C83.777,75.131 83.879,75.64 83.233,75.365 C82.81,75.184 82.431,74.606 82.012,74.381 C80.8,73.73 80.01,74.709 79.026,74.709 C78.244,74.709 77.514,73.616 76.718,74.217 C76.525,74.363 76.375,74.796 76.175,74.873 C75.515,75.125 74.735,74.213 74.072,74.873 C73.417,75.524 73.583,76.267 72.986,77.169 C72.827,77.408 72.614,77.316 72.443,77.497 C72.247,77.704 72.101,78.145 71.9,78.317 C70.999,79.085 71.525,77.584 70.746,79.465 C69.469,82.551 70.914,83.325 70.95,84.714 C70.978,85.805 70.294,86.314 70.135,87.338 C70.072,87.747 70.113,88.216 70.135,88.65 C70.159,89.097 70.386,89.606 70.271,89.962 C70.081,90.551 68.095,89.698 67.896,90.126 C67.761,90.416 67.999,91.078 67.896,91.438 C67.445,93.012 65.135,91.814 64.367,91.93 C64.185,91.957 64.006,92.066 63.824,92.094 C63.643,92.121 63.377,91.723 63.281,92.094 C63.179,92.49 63.343,93.089 63.485,93.406 C63.938,94.418 64.814,94.296 65.249,95.538 C65.374,95.895 65.292,96.591 65.453,96.85 C65.866,97.517 69.034,95.611 69.457,95.866 C70.188,96.308 70.147,97.448 71.153,97.178 C71.361,97.123 71.563,96.985 71.764,96.85 C71.971,96.711 72.176,96.166 72.375,96.358 C72.755,96.725 72.78,98.674 73.121,99.146 C73.41,99.544 74.001,98.901 74.275,98.818 C75.316,98.504 75.533,101.607 75.564,101.607 C75.807,101.607 76.542,96.097 77.533,98.49 C77.8,99.136 77.736,100.343 77.736,101.115 C77.736,101.552 77.555,102.427 77.736,102.427 C77.929,102.427 77.83,101.499 77.94,101.115 C78.162,100.334 78.549,99.279 79.026,99.638 C79.865,100.272 80.159,102.912 80.247,104.723 C80.29,105.593 80.504,107.739 80.179,107.347 C79.996,107.126 80.067,106.354 80.111,105.871 C80.299,103.833 81.099,102.044 81.944,102.427 C82.127,102.51 82.361,102.421 82.487,102.755 C82.756,103.469 82.551,109.643 82.622,109.643 C82.805,109.643 82.633,108.749 82.69,108.331 C82.77,107.751 82.887,107.195 83.03,106.691 C83.484,105.086 84.106,103.03 84.59,105.871 C84.722,106.641 84.618,107.711 84.658,108.495 C84.773,110.703 85.32,113.293 84.523,115.22 C84.008,116.463 83.024,117.079 82.351,116.368 C82.155,116.161 81.808,115.032 81.808,115.548 C81.808,116.701 82.927,117.779 82.555,118.5 C82.397,118.805 82.206,117.982 82.012,117.844 C81.815,117.704 81.601,117.787 81.401,117.68 C80.824,117.37 80.281,116.716 79.704,116.368 C79.523,116.258 79.161,115.589 79.161,116.04 C79.161,116.507 79.527,116.344 79.704,116.532 C79.89,116.728 80.071,116.948 80.247,117.188 C80.874,118.04 81.101,119.531 81.74,120.304 C82.459,121.173 84.292,120.632 85.133,120.632 C87.215,120.632 89.296,120.632 91.377,120.632" fill-opacity="0" stroke="#000000" stroke-width="4.5" stroke-opacity="0.092" stroke-linecap="round"/>
      </g>
      <g>
        <path d="M104.459,116.716 C106.407,113.341 105.601,117.879 107.033,117.326 C107.8,117.029 108.342,114.576 108.648,113.179 C108.946,111.817 109.148,110.602 109.354,109.154 C109.429,108.631 109.409,107.144 109.556,107.568 C109.617,107.746 109.61,111.641 109.606,111.959 C109.599,112.625 109.492,117.023 109.354,117.57 C108.582,120.634 105.537,118.18 104.358,118.18" fill="url(#Gradient_6)"/>
        <path d="M104.459,116.716 C106.407,113.341 105.601,117.879 107.033,117.326 C107.8,117.029 108.342,114.576 108.648,113.179 C108.946,111.817 109.148,110.602 109.354,109.154 C109.429,108.631 109.409,107.144 109.556,107.568 C109.617,107.746 109.61,111.641 109.606,111.959 C109.599,112.625 109.492,117.023 109.354,117.57 C108.582,120.634 105.537,118.18 104.358,118.18" fill-opacity="0" stroke="#000000" stroke-width="4.5" stroke-opacity="0.092" stroke-linecap="round"/>
      </g>
      <g>
        <path d="M96.384,117.204 C96.62,117.082 96.851,116.793 97.091,116.838 C97.309,116.878 97.506,117.188 97.696,117.448 C97.896,117.72 98.023,118.449 98.252,118.424 C98.49,118.397 98.691,117.831 98.807,117.326 C99.254,115.38 98.968,113.317 99.867,110.008 C100.011,109.477 100.114,108.42 100.371,108.544 C100.47,108.592 100.12,109.849 99.766,112.203 C99.525,113.801 99.338,115.56 99.665,117.204 C99.78,117.783 100.167,118.157 100.119,118.789 C99.938,121.188 97.292,119.586 96.738,119.277" fill="url(#Gradient_7)"/>
        <path d="M96.384,117.204 C96.62,117.082 96.851,116.793 97.091,116.838 C97.309,116.878 97.506,117.188 97.696,117.448 C97.896,117.72 98.023,118.449 98.252,118.424 C98.49,118.397 98.691,117.831 98.807,117.326 C99.254,115.38 98.968,113.317 99.867,110.008 C100.011,109.477 100.114,108.42 100.371,108.544 C100.47,108.592 100.12,109.849 99.766,112.203 C99.525,113.801 99.338,115.56 99.665,117.204 C99.78,117.783 100.167,118.157 100.119,118.789 C99.938,121.188 97.292,119.586 96.738,119.277" fill-opacity="0" stroke="#000000" stroke-width="4.5" stroke-opacity="0.092" stroke-linecap="round"/>
      </g>
      <g>
        <path d="M76.572,118.145 C75.919,118.831 74.687,114.785 74.597,114.708 C73.979,114.175 73.815,117.954 73.095,117.954 C72.853,117.954 72.371,117.223 72.542,116.808 C72.718,116.384 72.947,117.519 73.174,117.763 C73.426,118.033 73.697,118.184 73.965,118.336 C74.855,118.842 75.769,119.063 76.651,119.673" fill="url(#Gradient_8)"/>
        <path d="M76.572,118.145 C75.919,118.831 74.687,114.785 74.597,114.708 C73.979,114.175 73.815,117.954 73.095,117.954 C72.853,117.954 72.371,117.223 72.542,116.808 C72.718,116.384 72.947,117.519 73.174,117.763 C73.426,118.033 73.697,118.184 73.965,118.336 C74.855,118.842 75.769,119.063 76.651,119.673" fill-opacity="0" stroke="#000000" stroke-width="4.5" stroke-opacity="0.092" stroke-linecap="round"/>
      </g>
      <g>
        <path d="M68.433,116.618 C67.96,113.993 68.675,112.856 69.066,110.698 C69.632,107.567 67.857,107.731 67.722,108.025 C67.398,108.73 67.848,111.371 67.88,111.844 C68.111,115.19 67.848,118.337 66.142,118.337 C64.717,118.337 66.299,118.218 65.115,116.237 C64.744,115.616 64.165,117.148 63.771,116.618 C63.503,116.258 62.855,113.954 62.744,112.99 C62.647,112.147 62.678,109.674 62.586,109.553 C62.372,109.27 60.639,110.697 60.531,111.271 C60.442,111.749 60.559,112.379 60.69,112.799 C60.817,113.21 61.087,113.213 61.243,113.563 C61.489,114.119 61.688,114.794 61.875,115.473 C62.005,115.946 62.009,116.64 62.191,117 C62.5,117.611 64.286,117.382 64.719,117.382 C65.999,117.382 67.326,117.819 68.591,117.382" fill="url(#Gradient_9)"/>
        <path d="M68.433,116.618 C67.96,113.993 68.675,112.856 69.066,110.698 C69.632,107.567 67.857,107.731 67.722,108.025 C67.398,108.73 67.848,111.371 67.88,111.844 C68.111,115.19 67.848,118.337 66.142,118.337 C64.717,118.337 66.299,118.218 65.115,116.237 C64.744,115.616 64.165,117.148 63.771,116.618 C63.503,116.258 62.855,113.954 62.744,112.99 C62.647,112.147 62.678,109.674 62.586,109.553 C62.372,109.27 60.639,110.697 60.531,111.271 C60.442,111.749 60.559,112.379 60.69,112.799 C60.817,113.21 61.087,113.213 61.243,113.563 C61.489,114.119 61.688,114.794 61.875,115.473 C62.005,115.946 62.009,116.64 62.191,117 C62.5,117.611 64.286,117.382 64.719,117.382 C65.999,117.382 67.326,117.819 68.591,117.382" fill-opacity="0" stroke="#000000" stroke-width="4.5" stroke-opacity="0.092" stroke-linecap="round"/>
      </g>
    </g>
    <g>
      <path d="M149.966,79.548 C150.249,75.18 151.748,69.594 153.633,68.395 C154.385,67.917 155.326,67.937 156.098,67.937 C156.499,67.937 156.909,67.727 157.3,67.937 C157.971,68.298 159.704,71.255 160.144,72.52 C160.697,74.107 160.801,76.203 160.903,78.173 C160.932,78.731 160.785,79.503 160.966,79.854 C161.484,80.855 162.48,76.052 163.242,78.632 C163.499,79.501 163.037,84.743 162.61,84.743 C162.339,84.743 162.674,83.494 163.179,81.84 C163.408,81.09 164.963,75.291 164.759,74.659 C164.423,73.613 162.869,76.143 162.357,75.27 C161.85,74.405 161.518,71.783 161.156,70.534 C160.301,67.582 159.107,65.449 157.616,64.728 C156.572,64.224 154.576,63.988 153.57,64.728 C153.082,65.087 152.66,65.852 152.179,66.256 C151.68,66.675 150.619,67.345 150.093,67.478 C149.438,67.645 148.871,66.644 148.196,66.714 C147.593,66.778 146.839,68.332 146.363,68.089 C145.541,67.671 145.619,66.267 144.277,66.562 C143.616,66.707 143.167,68.288 142.506,67.784 C142.039,67.427 141.644,66.631 141.179,66.256 C139.907,65.231 137.275,64.743 135.995,65.645 C134.924,66.4 134.808,68.815 133.972,70.228 C133.168,71.588 130.305,71.089 130.305,74.812 C130.305,75.612 131.096,79.902 131.506,80.007 C131.69,80.053 132.722,76.977 133.024,76.187 C134.034,73.543 134.877,71.298 136.437,71.298 C137.062,71.298 137.716,71.166 138.334,71.451 C138.47,71.513 139.381,72.256 139.598,72.062 C140.549,71.215 140.887,68.08 142.19,70.228 C143.166,71.836 143.583,74.618 144.024,77.104 C144.113,77.608 144.202,78.114 144.277,78.632 C144.349,79.133 144.25,80.055 144.466,80.159 C144.657,80.252 144.558,79.246 144.593,78.784 C144.684,77.564 144.678,76.537 144.909,75.423 C145.776,71.232 147.746,71.075 149.018,74.354 C149.777,76.31 149.949,78.965 150.282,81.382" fill="url(#Gradient_10)"/>
      <path d="M140.167,98.646 C140.061,98.188 140.018,97.605 139.851,97.271 C138.53,94.643 135.083,97.811 133.466,96.507 C132.741,95.923 132.524,94.216 131.695,94.216 C130.721,94.216 129.17,96.084 128.345,93.757 C128.215,93.39 128.052,92.797 128.155,92.382 C128.465,91.133 131.361,89.504 132.075,88.868 C132.27,88.695 132.644,88.759 132.644,88.257 C132.644,87.118 131.724,87.646 131.253,87.646 C130.524,87.646 129.996,87.224 129.293,87.035 C128.177,86.735 128.981,88.235 127.776,89.327 C125.602,91.297 123.27,88.322 121.075,90.09 C120.765,90.34 119.977,91.125 120,92.229 C120.01,92.714 120.86,94.521 121.138,94.521 C121.509,94.521 125.013,88.706 126.322,93.452 C127.538,97.86 124.678,96.384 124.678,97.73 C124.678,98.191 125.058,97.817 125.247,97.883 C125.501,97.97 125.752,98.108 126.006,98.188 C126.745,98.421 127.426,98.886 128.155,99.258 C128.576,99.471 129.114,99.812 129.546,99.563 C130.186,99.195 130.691,97.123 131.443,97.577 C132.242,98.06 132.419,100.468 133.339,100.785 C134.717,101.261 136.057,99.434 137.385,98.952 C138.653,98.492 139.324,99.574 140.42,99.869" fill="url(#Gradient_11)"/>
      <path d="M164.129,87.638 C165.33,90.387 167.248,90.133 168.806,89.662 C170.095,89.273 171.501,87.908 172.575,90.506 C172.912,91.319 173.209,92.152 172.924,93.374 C172.238,96.322 169.727,95.554 168.666,95.061 C167.562,94.548 166.588,93.012 165.455,92.868 C164.023,92.686 163.598,95.224 162.034,95.567 C161.686,95.644 158.246,95.427 158.614,98.098 C158.758,99.146 159.513,97.648 159.94,97.254 C160.72,96.536 161.495,96.58 162.314,96.58 C163.692,96.58 165.099,96.955 166.432,97.761 C167.237,98.247 167.945,99.776 168.806,99.448 C169.575,99.154 169.98,97.706 170.691,97.254 C170.928,97.103 172.563,97.607 172.575,97.592 C172.978,97.131 174.25,93.68 174.67,92.868 C174.887,92.448 176.454,91.035 176.205,89.831 C176.163,89.628 175.117,89.355 175.019,89.325 C173.268,88.796 171.234,86.683 169.574,87.638 C168.451,88.284 167.396,89.078 166.223,88.482 C166.007,88.372 165.812,88.068 165.595,87.975 C164.902,87.68 164.065,87.975 163.361,87.975" fill="url(#Gradient_12)"/>
      <path d="M156.728,114.969 C156.053,114.962 155.309,115.669 154.634,115.306 C153.714,114.812 153.547,112.902 153.238,111.089 C153.159,110.624 153.167,109.739 152.959,109.739 C152.767,109.739 153.079,110.627 153.098,111.089 C153.129,111.825 153.145,113.662 152.959,114.463 C152.655,115.768 151.77,117.71 151.214,118.343 C150.796,118.818 149.28,118.788 148.91,118.006 C147.639,115.319 148.197,110.014 148.072,106.534 C148.052,105.962 147.984,105.406 147.933,104.846 C147.891,104.394 147.899,103.111 147.793,103.497 C147.659,103.983 147.928,115.327 147.723,116.319 C147.611,116.863 147.346,117.297 147.095,117.331 C146.785,117.373 145.922,115.373 145.838,114.969 C145.702,114.307 145.727,113.512 145.699,112.776 C145.68,112.272 145.886,111.031 145.699,111.257 C145.031,112.064 145.753,115.864 144.163,116.825 C143.837,117.022 142.3,117.526 141.999,117.162 C141.473,116.527 140.842,107.306 141.091,106.702 C141.227,106.374 141.207,107.592 141.231,108.052 C141.262,108.642 141.245,110.226 141.091,110.751 C140.568,112.545 138.44,113.993 138.927,115.644 C139.085,116.178 139.393,116.319 139.626,116.656 C142.353,120.611 145.171,118.6 148.142,119.355 C150.796,120.031 154.983,122.225 156.868,116.15" fill="url(#Gradient_13)"/>
      <path d="M154.704,98.435 C155.191,94.717 153.38,94.704 152.33,94.892 C152.048,94.943 151.757,94.986 151.493,95.229 C151.257,95.446 150.977,96.786 150.864,96.242 C150.725,95.567 151.197,94.943 151.283,94.217 C151.341,93.73 151.283,93.205 151.283,92.699 C151.283,92.08 151.343,91.445 151.283,90.843 C150.873,86.682 147.811,85.679 146.397,86.456 C144.003,87.771 143.381,92.933 144.093,98.097 C144.231,99.096 144.615,101.134 144.652,101.134 C144.687,101.134 144.054,96.763 144.023,96.579 C143.399,92.805 142.55,90.194 140.952,88.65 C140.259,87.98 140.403,88.113 139.556,87.806 C139.37,87.739 138.841,87.386 138.997,87.637 C140.112,89.434 144.859,89.488 145.908,86.794 C146.031,86.478 146.972,82.272 147.095,82.239 C147.302,82.183 147.232,83.221 147.374,83.588 C147.59,84.146 147.859,84.596 148.142,84.938 C148.799,85.732 149.847,86.455 150.585,86.625 C151.989,86.948 154.447,84.876 154.494,85.107 C154.597,85.602 154.049,85.449 153.866,85.782 C153.3,86.807 152.368,89.833 152.819,91.686 C153.38,93.99 154.864,93.334 155.262,95.904 C155.393,96.747 155.262,97.704 155.262,98.604" fill="url(#Gradient_14)"/>
      <path d="M169.853,116.319 C170.848,116.259 172,116.743 172.854,115.138 C173.532,113.864 173.828,111.228 173.552,109.233 C173.477,108.684 173.119,108.257 173.203,107.714 C173.466,106.023 175.875,113.062 175.088,115.138 C174.933,115.546 174.667,115.577 174.46,115.813 C173.032,117.436 171.724,118.343 170.132,118.343" fill="url(#Gradient_15)"/>
      <path d="M133.883,116.046 C133.52,115.274 133.008,115.104 132.625,114.425 C132.402,114.03 132.315,113.008 132.039,113.008 C131.835,113.008 131.844,113.938 131.871,114.425 C131.985,116.495 132.883,117.064 133.547,117.666" fill="url(#Gradient_16)"/>
      <path d="M127.01,115.641 C125.444,114.909 122.262,116.926 121.479,112.603 C121.389,112.104 121.299,111.475 121.395,110.983 C121.785,108.979 124.179,106.384 124.161,106.122 C124.093,105.135 122.125,105.926 121.814,106.324 C119.69,109.042 121.137,114.979 122.82,116.654 C123.532,117.363 124.343,117.258 125.083,117.059" fill="url(#Gradient_17)"/>
    </g>
    <g>
      <path d="M210.492,120.388 C210.711,120.497 210.927,120.662 211.149,120.715 C212.085,120.936 213.044,120.677 213.973,120.388 C214.348,120.272 215.384,120.485 215.089,119.899 C214.573,118.872 211.689,120.32 210.492,117.941 C210.097,117.157 209.34,115.222 209.047,114.19 C208.776,113.236 208.757,111.82 208.39,111.09 C208.059,110.432 207.002,110.646 206.617,110.927 C205.648,111.635 205.199,114.703 204.45,116.31 C202.926,119.579 200.79,120.144 198.867,119.083" fill="url(#Gradient_18)"/>
      <path d="M211.214,103.749 C211.126,103.206 210.973,102.701 210.951,102.118 C210.834,98.922 212.859,94.71 213.841,92.983 C214.089,92.547 214.354,92.166 214.629,91.841 C214.817,91.62 215.406,91.583 215.22,91.352 C215.001,91.08 214.741,91.603 214.498,91.678 C213.401,92.019 212.014,92.548 210.951,91.515 C210.157,90.743 209.324,89.593 208.718,88.09 C208.498,87.543 208.312,86.917 208.127,86.295 C208.005,85.882 207.983,85.22 207.799,84.99 C207.583,84.723 207.296,84.747 207.076,84.99 C206.988,85.088 205.807,87.388 205.5,87.927 C204.519,89.647 203.411,90.86 202.282,91.841 C201.711,92.338 201.174,92.508 200.574,92.657 C200.312,92.722 199.536,92.613 199.786,92.82 C200.555,93.457 201.946,92.388 202.873,93.31 C204.465,94.891 205.167,98.859 205.631,102.607" fill="url(#Gradient_19)"/>
      <path d="M196.241,102.771 C196,102.989 195.757,103.654 195.518,103.424 C195.159,103.077 194.932,100.246 193.942,99.509 C193.186,98.945 192.812,100.073 192.103,100.161 C191.44,100.243 190.869,99.005 190.264,98.53 C189.388,97.843 188.424,97.334 187.506,97.225 C186.88,97.151 186.014,96.922 185.404,97.225 C185.085,97.383 184.783,97.718 184.485,98.041 C184.278,98.264 184.113,98.984 183.893,98.856 C183.637,98.706 183.563,97.828 183.368,97.388 C182.765,96.026 181.592,94.267 180.872,93.31 C180.604,92.952 180.209,93.086 180.019,92.494 C179.895,92.112 180.413,92.494 180.61,92.494 C180.829,92.494 181.047,92.494 181.266,92.494 C182.38,92.494 183.292,92.259 184.353,91.353 C185.322,90.525 186.25,89.48 187.112,88.09 C187.545,87.391 187.973,86.659 188.359,85.806 C188.533,85.422 188.594,84.65 188.819,84.501 C189.242,84.222 189.791,86.681 189.87,86.948 C190.74,89.881 191.721,89.217 192.76,91.189 C194.468,94.433 191.951,90.744 193.811,93.31" fill="url(#Gradient_20)"/>
      <path d="M191.774,119.409 C190.613,118.665 189.932,118.71 189.673,115.494" fill="url(#Gradient_21)"/>
      <path d="M188.097,109.622 L188.097,109.622" fill="url(#Gradient_22)"/>
      <path d="M181.595,110.764 C181.732,114.325 182.631,117.008 184.025,117.778" fill="url(#Gradient_23)"/>
      <path d="M192.235,79.608 C192.081,79.173 191.844,78.855 191.775,78.303 C191.613,77.015 192.595,73.634 192.826,72.757 C192.886,72.527 194.032,68.777 194.074,68.679 C195.698,64.821 198.761,62.919 200.97,64.111 C202.819,65.11 203.559,68.624 204.582,69.005 C205.112,69.202 205.988,67.111 206.421,67.863 C206.854,68.617 205.095,77.292 205.37,77.487 C205.623,77.667 205.731,76.5 205.961,76.182 C206.565,75.349 207.72,75.855 208.325,76.182 C208.696,76.382 209.942,78.661 210.23,78.303 C210.43,78.055 210.167,77.2 210.099,76.672 C210.01,75.981 208.93,70.081 209.048,69.494 C209.528,67.11 214.114,67.319 215.221,66.884 C216.146,66.522 217.542,64.443 218.111,64.601 C218.807,64.793 220.73,67.199 221.461,68.189 C222.675,69.835 223.279,71.532 223.103,75.04 C223.08,75.485 223.025,75.917 222.971,76.345 C222.915,76.789 222.652,77.298 222.774,77.65 C223.026,78.38 224.697,75.944 225.336,78.955 C225.957,81.889 223.867,87.759 224.088,88.579 C224.138,88.768 225.332,88.417 225.336,88.416" fill="url(#Gradient_24)"/>
      <path d="M223.102,98.856 C221.399,97.372 220.852,98.982 220.344,102.771" fill="url(#Gradient_25)"/>
      <path d="M230.326,97.871 C229.568,98.813 229.964,98.354 229.135,99.237" fill="url(#Gradient_26)"/>
      <path d="M228.861,106.749 C227.827,107.328 227.777,108.231 227.487,110.391" fill="url(#Gradient_27)"/>
      <path d="M225.287,117.674 C224.567,119.166 224.967,118.649 224.096,119.268" fill="url(#Gradient_28)"/>
    </g>
    <path d="M205.347,17.173 C205.132,16.885 204.943,16.448 204.704,16.311 C204.006,15.909 201.161,16.24 200.424,16.483 C199.848,16.673 199.089,17.377 198.497,17 C198.24,16.837 198.034,16.358 197.784,16.138 C196.939,15.396 195.966,15.018 195.073,14.931 C194.016,14.829 193.336,15.222 192.718,17.518 C192.596,17.975 192.664,18.684 192.505,19.069 C191.821,20.721 190.183,17.756 189.651,21.828 C189.477,23.162 189.525,25.462 189.651,26.829 C189.7,27.361 189.966,27.893 189.865,28.38 C189.667,29.336 188.593,29.856 188.295,30.449 C187.543,31.946 187.588,36.21 188.224,37.864 C188.915,39.664 190.152,38.815 190.578,39.588 C191.182,40.683 190.912,43.723 192.433,44.588 C193.308,45.086 193.68,43.267 194.431,42.864 C194.734,42.701 195.831,43.036 196.214,43.036 C196.431,43.036 198.013,42.748 198.141,42.864 C198.377,43.078 198.488,43.785 198.711,44.071 C198.905,44.319 199.182,44.085 199.354,44.416 C200,45.666 199.83,48.271 199.71,49.933 C199.694,50.166 199.404,52.818 199.282,53.209 C198.681,55.146 196.843,55.689 196,54.416 C195.699,53.962 195.326,52.559 194.859,52.692 C194.184,52.884 194.314,54.256 193.575,53.899 C193.282,53.758 193.064,53.144 192.79,52.865 C191.865,51.924 190.806,52.313 189.865,51.485 C188.549,50.329 189.593,51.002 188.438,49.761 C187.368,48.612 186.306,48.554 185.156,48.554 C183.051,48.554 180.741,50.848 183.016,55.796 C183.821,57.547 184.748,59.443 185.869,59.762 C186.082,59.822 186.465,60.266 186.512,59.762 C186.66,58.145 184.756,57.193 185.441,54.934 C185.611,54.374 185.956,54.312 186.226,54.072 C186.754,53.601 186.874,53.727 187.439,53.727 C189.661,53.727 191.568,59.766 193.311,60 C217.347,59.487 216.87,59.716 217.987,60 C220.045,60.524 222.425,54.624 224.396,53.037 C224.678,52.81 226.001,51.487 226.251,52.175 C226.729,53.495 224.262,55.663 224.324,57.175 C224.369,58.263 225.249,57.334 225.68,57.003 C226.889,56.073 228.163,55.885 228.248,52.175 C228.323,48.924 226.266,47.158 225.18,46.83 C224.343,46.577 223.365,46.486 222.541,47.002 C221.319,47.767 220.264,50.171 219.187,51.658 C218.031,53.255 216.918,53.6 215.62,53.899 C214.821,54.083 214.308,54.023 213.622,52.865 C213.067,51.925 212.741,51.453 212.552,49.933 C212.118,46.433 212.49,45.32 213.694,43.381 C216.076,39.542 217.839,43.013 220.044,42.347 C221.968,41.765 220.756,39.072 222.469,37.691 C223.746,36.663 225.649,38.366 224.966,32.863 C224.649,30.308 224.007,28.711 222.897,28.553 C222.684,28.522 222.469,28.524 222.255,28.553 C222.04,28.582 221.765,29.093 221.613,28.725 C221.461,28.357 221.674,27.693 221.684,27.173 C221.698,26.485 221.712,25.791 221.684,25.104 C221.605,23.09 221.067,20.788 220.472,19.414 C218.623,15.149 214.556,14.092 212.124,14.931 C210.812,15.384 209.512,16.259 208.2,16.656 C207.012,17.014 206.412,16.047 205.204,17.345" fill="url(#Gradient_29)"/>
  </g>
  <defs>
    <radialGradient id="Gradient_1" gradientUnits="userSpaceOnUse" cx="25.414" cy="50.103" r="12.492">
      <stop offset="0.342" stop-color="#FFFFFF"/>
      <stop offset="0.744" stop-color="#FFF500"/>
      <stop offset="1" stop-color="#800A00" stop-opacity="0.78"/>
    </radialGradient>
    <radialGradient id="Gradient_2" gradientUnits="userSpaceOnUse" cx="84.553" cy="44.568" r="16.069">
      <stop offset="0" stop-color="#FFFFFF"/>
      <stop offset="0.573" stop-color="#FFF000"/>
      <stop offset="1" stop-color="#800A00" stop-opacity="0.743"/>
    </radialGradient>
    <radialGradient id="Gradient_3" gradientUnits="userSpaceOnUse" cx="148.116" cy="42.832" r="18.678">
      <stop offset="0" stop-color="#FFFFFF"/>
      <stop offset="0.444" stop-color="#FEFF0F"/>
      <stop offset="0.915" stop-color="#BC0C08" stop-opacity="0.839"/>
    </radialGradient>
    <radialGradient id="Gradient_4" gradientUnits="userSpaceOnUse" cx="25.142" cy="96.917" r="25.142">
      <stop offset="0.077" stop-color="#FFFD15" stop-opacity="0.844"/>
      <stop offset="0.513" stop-color="#9D0902"/>
      <stop offset="1" stop-color="#531400"/>
    </radialGradient>
    <radialGradient id="Gradient_5" gradientUnits="userSpaceOnUse" cx="86.373" cy="97.417" r="23.124">
      <stop offset="0" stop-color="#FFF420" stop-opacity="0.885"/>
      <stop offset="0.564" stop-color="#800808"/>
      <stop offset="1" stop-color="#5F0100"/>
    </radialGradient>
    <radialGradient id="Gradient_6" gradientUnits="userSpaceOnUse" cx="106.982" cy="113.302" r="2.624">
      <stop offset="0" stop-color="#FFF420" stop-opacity="0.885"/>
      <stop offset="0.564" stop-color="#800808"/>
      <stop offset="1" stop-color="#5F0100"/>
    </radialGradient>
    <radialGradient id="Gradient_7" gradientUnits="userSpaceOnUse" cx="98.386" cy="114.311" r="2.002">
      <stop offset="0" stop-color="#FFF420" stop-opacity="0.885"/>
      <stop offset="0.564" stop-color="#800808"/>
      <stop offset="1" stop-color="#5F0100"/>
    </radialGradient>
    <radialGradient id="Gradient_8" gradientUnits="userSpaceOnUse" cx="74.579" cy="117.165" r="2.073">
      <stop offset="0" stop-color="#FFF420" stop-opacity="0.885"/>
      <stop offset="0.564" stop-color="#800808"/>
      <stop offset="1" stop-color="#5F0100"/>
    </radialGradient>
    <radialGradient id="Gradient_9" gradientUnits="userSpaceOnUse" cx="64.838" cy="113.107" r="4.338">
      <stop offset="0" stop-color="#FFF420" stop-opacity="0.885"/>
      <stop offset="0.564" stop-color="#800808"/>
      <stop offset="1" stop-color="#5F0100"/>
    </radialGradient>
    <radialGradient id="Gradient_10" gradientUnits="userSpaceOnUse" cx="147.541" cy="74.5" r="17.236">
      <stop offset="0" stop-color="#FFE80E" stop-opacity="0.743"/>
      <stop offset="1" stop-color="#800200" stop-opacity="0.661"/>
    </radialGradient>
    <radialGradient id="Gradient_11" gradientUnits="userSpaceOnUse" cx="130.21" cy="93.93" r="10.21">
      <stop offset="0" stop-color="#FFE80E" stop-opacity="0.743"/>
      <stop offset="1" stop-color="#800200" stop-opacity="0.661"/>
    </radialGradient>
    <radialGradient id="Gradient_12" gradientUnits="userSpaceOnUse" cx="167.409" cy="93.443" r="8.823">
      <stop offset="0" stop-color="#FFE80E" stop-opacity="0.743"/>
      <stop offset="1" stop-color="#800200" stop-opacity="0.661"/>
    </radialGradient>
    <radialGradient id="Gradient_13" gradientUnits="userSpaceOnUse" cx="147.862" cy="111.862" r="9.006">
      <stop offset="0" stop-color="#FFE80E" stop-opacity="0.743"/>
      <stop offset="1" stop-color="#800200" stop-opacity="0.661"/>
    </radialGradient>
    <radialGradient id="Gradient_14" gradientUnits="userSpaceOnUse" cx="147.145" cy="91.685" r="8.176">
      <stop offset="0" stop-color="#FFE80E" stop-opacity="0.743"/>
      <stop offset="1" stop-color="#800200" stop-opacity="0.661"/>
    </radialGradient>
    <radialGradient id="Gradient_15" gradientUnits="userSpaceOnUse" cx="172.549" cy="112.899" r="2.696">
      <stop offset="0" stop-color="#FFE80E" stop-opacity="0.743"/>
      <stop offset="1" stop-color="#800200" stop-opacity="0.661"/>
    </radialGradient>
    <radialGradient id="Gradient_16" gradientUnits="userSpaceOnUse" cx="132.87" cy="115.337" r="1.012">
      <stop offset="0" stop-color="#FFE80E" stop-opacity="0.743"/>
      <stop offset="1" stop-color="#800200" stop-opacity="0.661"/>
    </radialGradient>
    <radialGradient id="Gradient_17" gradientUnits="userSpaceOnUse" cx="123.882" cy="111.426" r="3.129">
      <stop offset="0" stop-color="#FFE80E" stop-opacity="0.743"/>
      <stop offset="1" stop-color="#800200" stop-opacity="0.661"/>
    </radialGradient>
    <radialGradient id="Gradient_18" gradientUnits="userSpaceOnUse" cx="207.004" cy="115.727" r="8.137">
      <stop offset="0" stop-color="#8F0004" stop-opacity="0.248"/>
      <stop offset="1" stop-color="#FFEC07" stop-opacity="0.119"/>
    </radialGradient>
    <radialGradient id="Gradient_19" gradientUnits="userSpaceOnUse" cx="207.497" cy="94.274" r="7.759">
      <stop offset="0" stop-color="#8F0004" stop-opacity="0.248"/>
      <stop offset="1" stop-color="#FFEC07" stop-opacity="0.119"/>
    </radialGradient>
    <radialGradient id="Gradient_20" gradientUnits="userSpaceOnUse" cx="188.12" cy="93.975" r="8.12">
      <stop offset="0" stop-color="#8F0004" stop-opacity="0.248"/>
      <stop offset="1" stop-color="#FFEC07" stop-opacity="0.119"/>
    </radialGradient>
    <radialGradient id="Gradient_21" gradientUnits="userSpaceOnUse" cx="190.724" cy="117.452" r="1.051">
      <stop offset="0" stop-color="#8F0004" stop-opacity="0.248"/>
      <stop offset="1" stop-color="#FFEC07" stop-opacity="0.119"/>
    </radialGradient>
    <radialGradient id="Gradient_22" gradientUnits="userSpaceOnUse" cx="188.097" cy="109.622" r="0">
      <stop offset="0" stop-color="#8F0004" stop-opacity="0.248"/>
      <stop offset="1" stop-color="#FFEC07" stop-opacity="0.119"/>
    </radialGradient>
    <radialGradient id="Gradient_23" gradientUnits="userSpaceOnUse" cx="182.81" cy="114.271" r="1.215">
      <stop offset="0" stop-color="#8F0004" stop-opacity="0.248"/>
      <stop offset="1" stop-color="#FFEC07" stop-opacity="0.119"/>
    </radialGradient>
    <radialGradient id="Gradient_24" gradientUnits="userSpaceOnUse" cx="208.604" cy="76.197" r="16.847">
      <stop offset="0" stop-color="#8F0004" stop-opacity="0.248"/>
      <stop offset="1" stop-color="#FFEC07" stop-opacity="0.119"/>
    </radialGradient>
    <radialGradient id="Gradient_25" gradientUnits="userSpaceOnUse" cx="221.723" cy="100.54" r="1.379">
      <stop offset="0" stop-color="#8F0004" stop-opacity="0.248"/>
      <stop offset="1" stop-color="#FFEC07" stop-opacity="0.119"/>
    </radialGradient>
    <radialGradient id="Gradient_26" gradientUnits="userSpaceOnUse" cx="229.73" cy="98.554" r="0.596">
      <stop offset="0" stop-color="#8F0004" stop-opacity="0.248"/>
      <stop offset="1" stop-color="#FFEC07" stop-opacity="0.119"/>
    </radialGradient>
    <radialGradient id="Gradient_27" gradientUnits="userSpaceOnUse" cx="228.174" cy="108.57" r="0.687">
      <stop offset="0" stop-color="#8F0004" stop-opacity="0.248"/>
      <stop offset="1" stop-color="#FFEC07" stop-opacity="0.119"/>
    </radialGradient>
    <radialGradient id="Gradient_28" gradientUnits="userSpaceOnUse" cx="224.692" cy="118.471" r="0.596">
      <stop offset="0" stop-color="#8F0004" stop-opacity="0.248"/>
      <stop offset="1" stop-color="#FFEC07" stop-opacity="0.119"/>
    </radialGradient>
    <radialGradient id="Gradient_29" gradientUnits="userSpaceOnUse" cx="205.163" cy="37.349" r="23.087">
      <stop offset="0" stop-color="#FFFFFF"/>
      <stop offset="0.346" stop-color="#FFEC0C"/>
      <stop offset="0.829" stop-color="#A80105"/>
    </radialGradient>
  </defs>
</svg>
